xof 0302txt 0032
Header {
 1;
 0;
 1;
}
template Header {
 <3D82AB43-62DA-11cf-AB39-0020AF71E433>
 WORD major;
 WORD minor;
 DWORD flags;
}

template Vector {
 <3D82AB5E-62DA-11cf-AB39-0020AF71E433>
 FLOAT x;
 FLOAT y;
 FLOAT z;
}

template Coords2d {
 <F6F23F44-7686-11cf-8F52-0040333594A3>
 FLOAT u;
 FLOAT v;
}

template Matrix4x4 {
 <F6F23F45-7686-11cf-8F52-0040333594A3>
 array FLOAT matrix[16];
}

template ColorRGBA {
 <35FF44E0-6C7C-11cf-8F52-0040333594A3>
 FLOAT red;
 FLOAT green;
 FLOAT blue;
 FLOAT alpha;
}

template ColorRGB {
 <D3E16E81-7835-11cf-8F52-0040333594A3>
 FLOAT red;
 FLOAT green;
 FLOAT blue;
}

template TextureFilename {
 <A42790E1-7810-11cf-8F52-0040333594A3>
 STRING filename;
}

template Material {
 <3D82AB4D-62DA-11cf-AB39-0020AF71E433>
 ColorRGBA faceColor;
 FLOAT power;
 ColorRGB specularColor;
 ColorRGB emissiveColor;
 [...]
}

template MeshFace {
 <3D82AB5F-62DA-11cf-AB39-0020AF71E433>
 DWORD nFaceVertexIndices;
 array DWORD faceVertexIndices[nFaceVertexIndices];
}

template MeshTextureCoords {
 <F6F23F40-7686-11cf-8F52-0040333594A3>
 DWORD nTextureCoords;
 array Coords2d textureCoords[nTextureCoords];
}

template MeshMaterialList {
 <F6F23F42-7686-11cf-8F52-0040333594A3>
 DWORD nMaterials;
 DWORD nFaceIndexes;
 array DWORD faceIndexes[nFaceIndexes];
 [Material]
}

template MeshNormals {
 <F6F23F43-7686-11cf-8F52-0040333594A3>
 DWORD nNormals;
 array Vector normals[nNormals];
 DWORD nFaceNormals;
 array MeshFace faceNormals[nFaceNormals];
}

template Mesh {
 <3D82AB44-62DA-11cf-AB39-0020AF71E433>
 DWORD nVertices;
 array Vector vertices[nVertices];
 DWORD nFaces;
 array MeshFace faces[nFaces];
 [...]
}

template FrameTransformMatrix {
 <F6F23F41-7686-11cf-8F52-0040333594A3>
 Matrix4x4 frameMatrix;
}

template Frame {
 <3D82AB46-62DA-11cf-AB39-0020AF71E433>
 [...]
}

Frame Rectangle01 {
   FrameTransformMatrix {
1.000000,0.000000,0.000000,0.000000,
0.000000,1.000000,0.000000,0.000000,
0.000000,0.000000,1.000000,0.000000,
0.000000,0.000000,0.000000,1.000000;;
 }
Mesh Rectangle011 {
 66;
52.999985;5.500005;-24.000015;,
-53.000008;5.499996;0.000017;,
-53.000008;5.499995;-23.999981;,
52.999985;5.500006;-0.000015;,
52.999985;-5.499996;-24.000015;,
-53.000008;5.499995;-23.999981;,
-53.000008;-5.500005;-23.999981;,
52.999985;5.500005;-24.000015;,
52.999985;-5.499995;-0.000015;,
52.999985;5.500005;-24.000015;,
52.999985;-5.499996;-24.000015;,
52.999985;5.500006;-0.000015;,
-53.000008;-5.500004;0.000019;,
-53.000008;5.499995;-23.999981;,
-53.000008;5.499996;0.000017;,
-53.000008;-5.500005;-23.999981;,
32.999992;-5.499996;-20.000015;,
52.999985;-5.499995;-0.000015;,
52.999985;-5.499996;-24.000015;,
32.999992;-5.500000;-0.000015;,
-53.000008;-5.500005;-23.999981;,
-33.000000;-5.500005;-19.999981;,
-33.000000;-5.500004;0.000019;,
-53.000008;-5.500004;0.000019;,
32.999992;-5.500000;-0.000015;,
32.638557;-3.138181;-20.000015;,
32.638557;-3.138185;-0.000015;,
32.999992;-5.499996;-20.000015;,
32.999992;-5.499996;-20.000015;,
-32.497864;-3.138190;-19.999981;,
32.638557;-3.138181;-20.000015;,
-33.000000;-5.500005;-19.999981;,
-33.000000;-5.500005;-19.999981;,
-32.497864;-3.138190;0.000019;,
-32.497864;-3.138190;-19.999981;,
-33.000000;-5.500004;0.000019;,
32.638557;-3.138185;-0.000015;,
29.237534;0.813457;-20.000015;,
29.237534;0.813453;-0.000015;,
32.638557;-3.138181;-20.000015;,
-29.212280;0.813447;-19.999981;,
29.237534;0.813457;-20.000015;,
-32.497864;-3.138190;-19.999981;,
-29.212280;0.813448;0.000019;,
-29.212280;0.813447;-19.999981;,
-32.497864;-3.138190;0.000019;,
22.901787;3.975707;-20.000015;,
22.901787;3.975703;-0.000015;,
29.237534;0.813457;-20.000015;,
-20.768547;3.975698;-19.999981;,
22.901787;3.975707;-20.000015;,
-29.212280;0.813447;-19.999981;,
-20.768547;3.975698;0.000019;,
-20.768547;3.975698;-19.999981;,
32.638557;-3.138185;-0.000015;,
52.999985;-5.499995;-0.000015;,
32.999992;-5.500000;-0.000015;,
-33.000000;-5.500004;0.000019;,
-53.000008;-5.500004;0.000019;,
-32.497864;-3.138190;0.000019;,
52.999985;5.500006;-0.000015;,
29.237534;0.813453;-0.000015;,
22.901787;3.975703;-0.000015;,
-20.768547;3.975698;0.000019;,
-53.000008;5.499996;0.000017;,
-29.212280;0.813448;0.000019;;

 44;
3;2,1,0;,
3;1,3,0;,
3;6,5,4;,
3;5,7,4;,
3;10,9,8;,
3;9,11,8;,
3;14,13,12;,
3;13,15,12;,
3;18,17,16;,
3;16,17,19;,
3;18,16,20;,
3;16,21,20;,
3;21,22,20;,
3;20,22,23;,
3;26,25,24;,
3;25,27,24;,
3;30,29,28;,
3;29,31,28;,
3;34,33,32;,
3;33,35,32;,
3;38,37,36;,
3;37,39,36;,
3;41,40,30;,
3;40,29,30;,
3;44,43,42;,
3;43,45,42;,
3;47,46,38;,
3;46,37,38;,
3;50,49,48;,
3;49,51,48;,
3;53,52,44;,
3;52,43,44;,
3;46,47,53;,
3;47,52,53;,
3;56,55,54;,
3;59,58,57;,
3;60,54,55;,
3;60,61,54;,
3;60,62,61;,
3;60,63,62;,
3;58,59,64;,
3;59,65,64;,
3;65,63,64;,
3;63,60,64;;
MeshMaterialList {
 1;
 44;
  0,
  0,
  0,
  0,
  0,
  0,
  0,
  0,
  0,
  0,
  0,
  0,
  0,
  0,
  0,
  0,
  0,
  0,
  0,
  0,
  0,
  0,
  0,
  0,
  0,
  0,
  0,
  0,
  0,
  0,
  0,
  0,
  0,
  0,
  0,
  0,
  0,
  0,
  0,
  0,
  0,
  0,
  0,
  0;;
Material _1 {
 1.000000;1.000000;1.000000;1.000000;;
4.000000;
 0.072000;0.072000;0.072000;;
 0.164706;0.164706;0.164706;;
TextureFilename {
"01.jpg";
}
 }
}

 MeshNormals {
 66;
-0.000000;1.000000;-0.000000;,
-0.000000;1.000000;-0.000000;,
-0.000000;1.000000;-0.000000;,
-0.000000;1.000000;-0.000000;,
-0.000000;0.000000;-1.000000;,
-0.000000;0.000000;-1.000000;,
-0.000000;0.000000;-1.000000;,
-0.000000;0.000000;-1.000000;,
1.000000;0.000000;0.000000;,
1.000000;0.000000;0.000000;,
1.000000;0.000000;0.000000;,
1.000000;0.000000;0.000000;,
-1.000000;0.000000;0.000000;,
-1.000000;0.000000;0.000000;,
-1.000000;0.000000;0.000000;,
-1.000000;0.000000;0.000000;,
0.000000;-1.000000;-0.000000;,
0.000000;-1.000000;-0.000000;,
0.000000;-1.000000;0.000000;,
0.000000;-1.000000;-0.000000;,
0.000000;-1.000000;-0.000000;,
0.000000;-1.000000;-0.000000;,
-0.000000;-1.000000;0.000000;,
0.000000;-1.000000;0.000000;,
-0.988492;-0.151272;-0.000000;,
-0.944111;-0.329627;-0.000000;,
-0.864522;-0.502595;-0.000000;,
-0.988492;-0.151272;-0.000000;,
0.000001;-0.000000;1.000000;,
0.000001;-0.000000;1.000000;,
0.000001;0.000000;1.000000;,
0.000001;-0.000000;1.000000;,
0.978138;-0.207958;0.000000;,
0.932531;-0.361091;0.000000;,
0.860944;-0.508700;0.000000;,
0.978138;-0.207958;0.000000;,
-0.864522;-0.502595;-0.000000;,
-0.665771;-0.746156;-0.000000;,
-0.560141;-0.828397;-0.000000;,
-0.944111;-0.329627;-0.000000;,
0.000001;0.000000;1.000000;,
0.000001;0.000001;1.000000;,
0.860944;-0.508700;0.000000;,
0.648788;-0.760969;0.000000;,
0.505119;-0.863050;0.000000;,
0.932531;-0.361091;0.000000;,
-0.304937;-0.952373;-0.000000;,
-0.152468;-0.988308;-0.000000;,
0.000001;0.000000;1.000000;,
0.000001;0.000000;1.000000;,
0.000001;0.000002;1.000000;,
0.000001;-0.000002;1.000000;,
0.237185;-0.971465;0.000000;,
0.118593;-0.992943;-0.000000;,
0.000000;0.000000;1.000000;,
0.000000;0.000000;1.000000;,
0.000000;0.000000;1.000000;,
0.000000;0.000000;1.000000;,
-0.000000;0.000000;1.000000;,
-0.000000;0.000000;1.000000;,
0.000000;-0.000002;1.000000;,
0.000000;0.000000;1.000000;,
0.000000;-0.000008;1.000000;,
0.000000;-0.000003;1.000000;,
0.000000;0.000002;1.000000;,
-0.000000;0.000000;1.000000;;

 44;
3;2,1,0;,
3;1,3,0;,
3;6,5,4;,
3;5,7,4;,
3;10,9,8;,
3;9,11,8;,
3;14,13,12;,
3;13,15,12;,
3;18,17,16;,
3;16,17,19;,
3;18,16,20;,
3;16,21,20;,
3;21,22,20;,
3;20,22,23;,
3;26,25,24;,
3;25,27,24;,
3;30,29,28;,
3;29,31,28;,
3;34,33,32;,
3;33,35,32;,
3;38,37,36;,
3;37,39,36;,
3;41,40,30;,
3;40,29,30;,
3;44,43,42;,
3;43,45,42;,
3;47,46,38;,
3;46,37,38;,
3;50,49,48;,
3;49,51,48;,
3;53,52,44;,
3;52,43,44;,
3;46,47,53;,
3;47,52,53;,
3;56,55,54;,
3;59,58,57;,
3;60,54,55;,
3;60,61,54;,
3;60,62,61;,
3;60,63,62;,
3;58,59,64;,
3;59,65,64;,
3;65,63,64;,
3;63,60,64;;
 }
MeshTextureCoords {
 66;
0.801510;0.995000;,
0.615133;0.005000;,
0.801510;0.005000;,
0.615134;0.995000;,
0.171121;0.995000;,
0.085699;0.005000;,
0.171121;0.005000;,
0.085699;0.995000;,
0.421644;0.386980;,
0.608020;0.026466;,
0.608020;0.386980;,
0.421644;0.026466;,
0.421644;0.417001;,
0.608020;0.777515;,
0.421644;0.777515;,
0.608020;0.417001;,
0.963937;0.191792;,
0.808624;0.005000;,
0.995000;0.005000;,
0.808624;0.191792;,
0.995000;0.995000;,
0.963937;0.808207;,
0.808623;0.808207;,
0.808623;0.995000;,
0.421644;0.916693;,
0.606660;0.995000;,
0.421644;0.995000;,
0.606660;0.916693;,
0.078585;0.010114;,
0.060244;0.987507;,
0.060244;0.015507;,
0.078585;0.995000;,
0.606660;0.886672;,
0.421644;0.807536;,
0.606660;0.807536;,
0.421644;0.886672;,
0.270771;0.008375;,
0.414530;0.059890;,
0.270771;0.059890;,
0.414530;0.008375;,
0.029557;0.938478;,
0.029557;0.066259;,
0.414530;0.995000;,
0.270771;0.945233;,
0.414530;0.945233;,
0.270771;0.995000;,
0.414530;0.155858;,
0.270771;0.155858;,
0.029557;0.066259;,
0.005000;0.812476;,
0.005000;0.160805;,
0.029557;0.938478;,
0.270771;0.817335;,
0.414530;0.817335;,
0.245316;0.195168;,
0.263657;0.005000;,
0.263657;0.191792;,
0.263657;0.808207;,
0.263657;0.995000;,
0.245316;0.803518;,
0.178235;0.005000;,
0.214629;0.226932;,
0.190072;0.286106;,
0.190072;0.693970;,
0.178235;0.995000;,
0.214629;0.772832;;
}
}
 }
