xof 0302txt 0032
Header {
 1;
 0;
 1;
}
template Header {
 <3D82AB43-62DA-11cf-AB39-0020AF71E433>
 WORD major;
 WORD minor;
 DWORD flags;
}

template Vector {
 <3D82AB5E-62DA-11cf-AB39-0020AF71E433>
 FLOAT x;
 FLOAT y;
 FLOAT z;
}

template Coords2d {
 <F6F23F44-7686-11cf-8F52-0040333594A3>
 FLOAT u;
 FLOAT v;
}

template Matrix4x4 {
 <F6F23F45-7686-11cf-8F52-0040333594A3>
 array FLOAT matrix[16];
}

template ColorRGBA {
 <35FF44E0-6C7C-11cf-8F52-0040333594A3>
 FLOAT red;
 FLOAT green;
 FLOAT blue;
 FLOAT alpha;
}

template ColorRGB {
 <D3E16E81-7835-11cf-8F52-0040333594A3>
 FLOAT red;
 FLOAT green;
 FLOAT blue;
}

template TextureFilename {
 <A42790E1-7810-11cf-8F52-0040333594A3>
 STRING filename;
}

template Material {
 <3D82AB4D-62DA-11cf-AB39-0020AF71E433>
 ColorRGBA faceColor;
 FLOAT power;
 ColorRGB specularColor;
 ColorRGB emissiveColor;
 [...]
}

template MeshFace {
 <3D82AB5F-62DA-11cf-AB39-0020AF71E433>
 DWORD nFaceVertexIndices;
 array DWORD faceVertexIndices[nFaceVertexIndices];
}

template MeshTextureCoords {
 <F6F23F40-7686-11cf-8F52-0040333594A3>
 DWORD nTextureCoords;
 array Coords2d textureCoords[nTextureCoords];
}

template MeshMaterialList {
 <F6F23F42-7686-11cf-8F52-0040333594A3>
 DWORD nMaterials;
 DWORD nFaceIndexes;
 array DWORD faceIndexes[nFaceIndexes];
 [Material]
}

template MeshNormals {
 <F6F23F43-7686-11cf-8F52-0040333594A3>
 DWORD nNormals;
 array Vector normals[nNormals];
 DWORD nFaceNormals;
 array MeshFace faceNormals[nFaceNormals];
}

template Mesh {
 <3D82AB44-62DA-11cf-AB39-0020AF71E433>
 DWORD nVertices;
 array Vector vertices[nVertices];
 DWORD nFaces;
 array MeshFace faces[nFaces];
 [...]
}

template FrameTransformMatrix {
 <F6F23F41-7686-11cf-8F52-0040333594A3>
 Matrix4x4 frameMatrix;
}

template Frame {
 <3D82AB46-62DA-11cf-AB39-0020AF71E433>
 [...]
}

Frame Box005 {
   FrameTransformMatrix {
1.000000,0.000000,0.000000,0.000000,
0.000000,1.000000,0.000000,0.000000,
0.000000,0.000000,1.000000,0.000000,
0.000000,0.000000,0.000000,1.000000;;
 }
Mesh Box0051 {
 88;
0.399994;0.000000;-0.400000;,
495.600006;0.000000;-0.400000;,
0.399994;0.000000;-16.600000;,
495.600006;0.000000;-16.600000;,
495.600006;716.000000;-16.600000;,
495.600006;716.000000;-0.400000;,
0.399994;716.000000;-16.600000;,
0.399994;716.000000;-0.400000;,
496.000000;0.400000;-0.400000;,
496.000000;715.599976;-0.400000;,
496.000000;0.400000;-16.600000;,
496.000000;715.599976;-16.600000;,
0.000000;0.400000;-16.600000;,
0.000000;715.599976;-16.600000;,
0.000000;0.400000;-0.400000;,
0.000000;715.599976;-0.400000;,
0.000000;0.400000;-16.600000;,
0.399994;0.000000;-16.600000;,
0.399994;0.400000;-17.000000;,
496.000000;0.400000;-16.600000;,
495.600006;0.400000;-17.000000;,
495.600006;0.000000;-16.600000;,
0.399994;0.400000;0.000000;,
0.399994;0.000000;-0.400000;,
0.000000;0.400000;-0.400000;,
495.600006;0.400000;0.000000;,
496.000000;0.400000;-0.400000;,
495.600006;0.000000;-0.400000;,
0.399994;716.000000;-16.600000;,
0.000000;715.599976;-16.600000;,
0.399994;715.599976;-17.000000;,
495.600006;716.000000;-16.600000;,
495.600006;715.599976;-17.000000;,
496.000000;715.599976;-16.600000;,
0.399994;716.000000;-0.400000;,
0.399994;715.599976;0.000000;,
0.000000;715.599976;-0.400000;,
495.600006;716.000000;-0.400000;,
496.000000;715.599976;-0.400000;,
495.600006;715.599976;0.000000;,
0.000000;0.400000;-16.600000;,
0.000000;0.400000;-0.400000;,
0.399994;0.000000;-16.600000;,
0.399994;0.000000;-0.400000;,
0.399994;0.400000;0.000000;,
495.600006;0.400000;0.000000;,
0.399994;0.000000;-0.400000;,
495.600006;0.000000;-0.400000;,
496.000000;0.400000;-0.400000;,
496.000000;0.400000;-16.600000;,
495.600006;0.000000;-0.400000;,
495.600006;0.000000;-16.600000;,
495.600006;0.400000;-17.000000;,
0.399994;0.400000;-17.000000;,
495.600006;0.000000;-16.600000;,
0.399994;0.000000;-16.600000;,
0.399994;715.599976;-17.000000;,
495.600006;715.599976;-17.000000;,
0.399994;716.000000;-16.600000;,
495.600006;716.000000;-16.600000;,
496.000000;715.599976;-16.600000;,
496.000000;715.599976;-0.400000;,
495.600006;716.000000;-16.600000;,
495.600006;716.000000;-0.400000;,
495.600006;715.599976;0.000000;,
0.399994;715.599976;0.000000;,
495.600006;716.000000;-0.400000;,
0.399994;716.000000;-0.400000;,
0.000000;715.599976;-0.400000;,
0.000000;715.599976;-16.600000;,
0.399994;716.000000;-0.400000;,
0.399994;716.000000;-16.600000;,
496.000000;0.400000;-16.600000;,
496.000000;715.599976;-16.600000;,
495.600006;0.400000;-17.000000;,
495.600006;715.599976;-17.000000;,
0.000000;715.599976;-16.600000;,
0.000000;0.400000;-16.600000;,
0.399994;715.599976;-17.000000;,
0.399994;0.400000;-17.000000;,
495.600006;0.400000;0.000000;,
495.600006;715.599976;0.000000;,
496.000000;0.400000;-0.400000;,
496.000000;715.599976;-0.400000;,
0.000000;0.400000;-0.400000;,
0.000000;715.599976;-0.400000;,
0.399994;0.400000;0.000000;,
0.399994;715.599976;0.000000;;

 40;
3;2,1,0;,
3;1,2,3;,
3;6,5,4;,
3;5,6,7;,
3;10,9,8;,
3;9,10,11;,
3;14,13,12;,
3;13,14,15;,
3;18,17,16;,
3;21,20,19;,
3;24,23,22;,
3;27,26,25;,
3;30,29,28;,
3;33,32,31;,
3;36,35,34;,
3;39,38,37;,
3;42,41,40;,
3;41,42,43;,
3;46,45,44;,
3;45,46,47;,
3;50,49,48;,
3;49,50,51;,
3;54,53,52;,
3;53,54,55;,
3;58,57,56;,
3;57,58,59;,
3;62,61,60;,
3;61,62,63;,
3;66,65,64;,
3;65,66,67;,
3;70,69,68;,
3;69,70,71;,
3;74,73,72;,
3;73,74,75;,
3;78,77,76;,
3;77,78,79;,
3;82,81,80;,
3;81,82,83;,
3;86,85,84;,
3;85,86,87;;
MeshMaterialList {
 1;
 40;
  0,
  0,
  0,
  0,
  0,
  0,
  0,
  0,
  0,
  0,
  0,
  0,
  0,
  0,
  0,
  0,
  0,
  0,
  0,
  0,
  0,
  0,
  0,
  0,
  0,
  0,
  0,
  0,
  0,
  0,
  0,
  0,
  0,
  0,
  0,
  0,
  0,
  0,
  0,
  0;;
Material mat_02 {
 1.000000;1.000000;1.000000;1.000000;;
3.200000;
 0.000000;0.000000;0.000000;;
 0.000000;0.000000;0.000000;;
TextureFilename {
"02.jpg";
}
 }
}

 MeshNormals {
 88;
0.000000;-1.000000;0.000000;,
0.000000;-1.000000;0.000000;,
0.000000;-1.000000;0.000000;,
0.000000;-1.000000;0.000000;,
0.000000;1.000000;0.000000;,
0.000000;1.000000;0.000000;,
0.000000;1.000000;0.000000;,
0.000000;1.000000;0.000000;,
1.000000;0.000000;0.000000;,
1.000000;0.000000;0.000000;,
1.000000;0.000000;0.000000;,
1.000000;0.000000;0.000000;,
-1.000000;0.000000;0.000000;,
-1.000000;0.000000;0.000000;,
-1.000000;0.000000;0.000000;,
-1.000000;0.000000;0.000000;,
-0.577356;-0.577347;-0.577348;,
-0.577356;-0.577347;-0.577348;,
-0.577356;-0.577347;-0.577348;,
0.577356;-0.577347;-0.577348;,
0.577356;-0.577347;-0.577348;,
0.577356;-0.577347;-0.577348;,
-0.577356;-0.577347;0.577348;,
-0.577356;-0.577347;0.577348;,
-0.577356;-0.577347;0.577348;,
0.577356;-0.577347;0.577348;,
0.577356;-0.577347;0.577348;,
0.577356;-0.577347;0.577348;,
-0.577368;0.577324;-0.577360;,
-0.577368;0.577324;-0.577360;,
-0.577368;0.577324;-0.577360;,
0.577368;0.577324;-0.577360;,
0.577368;0.577324;-0.577360;,
0.577368;0.577324;-0.577360;,
-0.577368;0.577324;0.577360;,
-0.577368;0.577324;0.577360;,
-0.577368;0.577324;0.577360;,
0.577368;0.577324;0.577360;,
0.577368;0.577324;0.577360;,
0.577368;0.577324;0.577360;,
-0.707112;-0.707101;0.000000;,
-0.707112;-0.707101;0.000000;,
-0.707112;-0.707101;0.000000;,
-0.707112;-0.707101;0.000000;,
0.000000;-0.707106;0.707107;,
0.000000;-0.707106;0.707107;,
0.000000;-0.707106;0.707107;,
0.000000;-0.707106;0.707107;,
0.707112;-0.707101;0.000000;,
0.707112;-0.707101;0.000000;,
0.707112;-0.707101;0.000000;,
0.707112;-0.707101;0.000000;,
0.000000;-0.707106;-0.707107;,
0.000000;-0.707106;-0.707107;,
0.000000;-0.707106;-0.707107;,
0.000000;-0.707106;-0.707107;,
0.000000;0.707085;-0.707129;,
0.000000;0.707085;-0.707129;,
0.000000;0.707085;-0.707129;,
0.000000;0.707085;-0.707129;,
0.707134;0.707080;0.000000;,
0.707134;0.707080;0.000000;,
0.707134;0.707080;0.000000;,
0.707134;0.707080;0.000000;,
0.000000;0.707085;0.707129;,
0.000000;0.707085;0.707129;,
0.000000;0.707085;0.707129;,
0.000000;0.707085;0.707129;,
-0.707134;0.707080;0.000000;,
-0.707134;0.707080;0.000000;,
-0.707134;0.707080;0.000000;,
-0.707134;0.707080;0.000000;,
0.707112;0.000000;-0.707102;,
0.707112;0.000000;-0.707102;,
0.707112;0.000000;-0.707102;,
0.707112;0.000000;-0.707102;,
-0.707112;0.000000;-0.707102;,
-0.707112;0.000000;-0.707102;,
-0.707112;0.000000;-0.707102;,
-0.707112;0.000000;-0.707102;,
0.707112;0.000000;0.707102;,
0.707112;0.000000;0.707102;,
0.707112;0.000000;0.707102;,
0.707112;0.000000;0.707102;,
-0.707112;0.000000;0.707102;,
-0.707112;0.000000;0.707102;,
-0.707112;0.000000;0.707102;,
-0.707112;0.000000;0.707102;;

 40;
3;2,1,0;,
3;1,2,3;,
3;6,5,4;,
3;5,6,7;,
3;10,9,8;,
3;9,10,11;,
3;14,13,12;,
3;13,14,15;,
3;18,17,16;,
3;21,20,19;,
3;24,23,22;,
3;27,26,25;,
3;30,29,28;,
3;33,32,31;,
3;36,35,34;,
3;39,38,37;,
3;42,41,40;,
3;41,42,43;,
3;46,45,44;,
3;45,46,47;,
3;50,49,48;,
3;49,50,51;,
3;54,53,52;,
3;53,54,55;,
3;58,57,56;,
3;57,58,59;,
3;62,61,60;,
3;61,62,63;,
3;66,65,64;,
3;65,66,67;,
3;70,69,68;,
3;69,70,71;,
3;74,73,72;,
3;73,74,75;,
3;78,77,76;,
3;77,78,79;,
3;82,81,80;,
3;81,82,83;,
3;86,85,84;,
3;85,86,87;;
 }
MeshTextureCoords {
 88;
2.005995;-0.516554;,
0.994005;-0.516554;,
2.005995;-0.483446;,
0.994005;-0.483446;,
2.005995;-0.483446;,
2.005995;-0.516554;,
0.994005;-0.483446;,
0.994005;-0.516554;,
1.516554;0.230791;,
1.516554;-1.230791;,
1.483446;0.230791;,
1.483446;-1.230791;,
1.516554;0.230791;,
1.516554;-1.230791;,
1.483446;0.230791;,
1.483446;-1.230791;,
1.516554;0.230791;,
1.516554;0.231607;,
1.517370;0.230791;,
1.483446;0.230791;,
1.482630;0.230791;,
1.483446;0.231607;,
1.482630;0.230791;,
1.483446;0.231607;,
1.483446;0.230791;,
1.517370;0.230791;,
1.516554;0.230791;,
1.516554;0.231607;,
1.516554;-1.231607;,
1.516554;-1.230791;,
1.517370;-1.230791;,
1.483446;-1.231607;,
1.482630;-1.230791;,
1.483446;-1.230791;,
1.483446;-1.231607;,
1.482630;-1.230791;,
1.483446;-1.230791;,
1.516554;-1.231607;,
1.516554;-1.230791;,
1.517370;-1.230791;,
1.516554;0.230791;,
1.483446;0.230791;,
1.516554;0.231607;,
1.483446;0.231607;,
2.005995;0.230791;,
0.994005;0.230791;,
2.005995;0.231607;,
0.994005;0.231607;,
1.516554;0.230791;,
1.483446;0.230791;,
1.516554;0.231607;,
1.483446;0.231607;,
2.005995;0.230791;,
0.994005;0.230791;,
2.005995;0.231607;,
0.994005;0.231607;,
0.994005;-1.230791;,
2.005995;-1.230791;,
0.994005;-1.231607;,
2.005995;-1.231607;,
1.483446;-1.230791;,
1.516554;-1.230791;,
1.483446;-1.231607;,
1.516554;-1.231607;,
0.994005;-1.230791;,
2.005995;-1.230791;,
0.994005;-1.231607;,
2.005995;-1.231607;,
1.483446;-1.230791;,
1.516554;-1.230791;,
1.483446;-1.231607;,
1.516554;-1.231607;,
1.483446;0.230791;,
1.483446;-1.230791;,
1.482630;0.230791;,
1.482630;-1.230791;,
1.516554;-1.230791;,
1.516554;0.230791;,
1.517370;-1.230791;,
1.517370;0.230791;,
1.517370;0.230791;,
1.517370;-1.230791;,
1.516554;0.230791;,
1.516554;-1.230791;,
1.483446;0.230791;,
1.483446;-1.230791;,
1.482630;0.230791;,
1.482630;-1.230791;;
}
}
 }
Frame Box006 {
   FrameTransformMatrix {
1.000000,0.000000,0.000000,0.000000,
0.000000,1.000000,0.000000,0.000000,
0.000000,0.000000,1.000000,0.000000,
0.000000,0.000000,0.000000,1.000000;;
 }
Mesh Box0063 {
 4;
0.399994;0.400000;0.000000;,
0.399994;715.599976;0.000000;,
495.600006;0.400000;0.000000;,
495.600006;715.599976;0.000000;;

 2;
3;2,1,0;,
3;1,2,3;;
MeshMaterialList {
 1;
 2;
  0,
  0;;
Material mat_01 {
 1.000000;1.000000;1.000000;1.000000;;
3.200000;
 0.000000;0.000000;0.000000;;
 0.000000;0.000000;0.000000;;
TextureFilename {
"01.jpg";
}
 }
}

 MeshNormals {
 4;
0.000000;0.000000;1.000000;,
0.000000;0.000000;1.000000;,
0.000000;0.000000;1.000000;,
0.000000;0.000000;1.000000;;

 2;
3;2,1,0;,
3;1,2,3;;
 }
MeshTextureCoords {
 4;
2.005995;0.230791;,
2.005995;-1.230791;,
0.994005;0.230791;,
0.994005;-1.230791;;
}
}
 }
Frame Box004 {
   FrameTransformMatrix {
1.000000,0.000000,0.000000,0.000000,
0.000000,1.000000,0.000000,0.000000,
0.000000,0.000000,1.000000,0.000000,
0.000000,0.000000,0.000000,1.000000;;
 }
Mesh Box0045 {
 4;
495.600006;0.400000;-17.000000;,
495.600006;715.599976;-17.000000;,
0.399994;0.400000;-17.000000;,
0.399994;715.599976;-17.000000;;

 2;
3;2,1,0;,
3;1,2,3;;
MeshMaterialList {
 1;
 2;
  0,
  0;;
Material mat_01 {
 1.000000;1.000000;1.000000;1.000000;;
3.200000;
 0.000000;0.000000;0.000000;;
 0.000000;0.000000;0.000000;;
TextureFilename {
"01.jpg";
}
 }
}

 MeshNormals {
 4;
0.000000;0.000000;-1.000000;,
0.000000;0.000000;-1.000000;,
0.000000;0.000000;-1.000000;,
0.000000;0.000000;-1.000000;;

 2;
3;2,1,0;,
3;1,2,3;;
 }
MeshTextureCoords {
 4;
2.005995;0.230791;,
2.005995;-1.230791;,
0.994005;0.230791;,
0.994005;-1.230791;;
}
}
 }
