[
	{ "s": "ЩЁЛКНИТЕ", "p": [15] },
	{ "s": "ЩЕЛКНИТЕ", "p": [29, 17, 15] },
	{ "s": "ЩЕЛКНУВ", "p": [23] },
	{ "s": "ЩЕЛКНУТЬ", "p": [25, 16, 14] },
	{ "s": "ЩЕЛЧКЕ", "p": [26] },
	{ "s": "ЩЕЛЧКОМ", "p": [24, 17] },
	{ "s": "ЩЕЛЧОК", "p": [6, 25] }
]