[
	{ "s": "С", "p": [23, 24, 6, 5, 42, 32, 25, 39, 30, 26, 21, 36, 34, 29, 22, 19, 15, 14, 11, 4] },
	{ "s": "САМОЙ", "p": [10] },
	{ "s": "САМОМ", "p": [14, 5] },
	{ "s": "САМЫЕ", "p": [25] },
	{ "s": "СБОКУ", "p": [22, 7] },
	{ "s": "СБОРКЕ", "p": [32, 9] },
	{ "s": "СБОРКИ", "p": [37, 36, 32] },
	{ "s": "СБОРЩИКИ", "p": [32] },
	{ "s": "СБОРЩИКОВ", "p": [39, 9] },
	{ "s": "СВЕРХУ", "p": [32, 35, 26, 22, 14, 8, 7] },
	{ "s": "СВЕТ", "p": [29] },
	{ "s": "СВЕТА", "p": [29, 39, 26] },
	{ "s": "СВЕТОВОГО", "p": [29] },
	{ "s": "СВЕТОВОЙ", "p": [29] },
	{ "s": "СВЕТОМ", "p": [29] },
	{ "s": "СВОБОДНО", "p": [24] },
	{ "s": "СВОБОДНОГО", "p": [30, 25] },
	{ "s": "СВОБОДНОЕ", "p": [35, 23] },
	{ "s": "СВОБОДНОМ", "p": [38] },
	{ "s": "СВОБОДНЫЕ", "p": [14] },
	{ "s": "СВОБОДНЫЙ", "p": [14] },
	{ "s": "СВОБОДНЫМ", "p": [23] },
	{ "s": "СВОЙ", "p": [12, 5] },
	{ "s": "СВОЙСТВ", "p": [24, 42, 36, 19, 18, 17] },
	{ "s": "СВОЙСТВА", "p": [24, 22, 5] },
	{ "s": "СВОЙСТВАМ", "p": [24] },
	{ "s": "СВОЙСТВАХ", "p": [3] },
	{ "s": "СВЯЗАННОГО", "p": [5] },
	{ "s": "СВЯЗИ", "p": [23] },
	{ "s": "СВЯЗЫВАЕТ", "p": [23] },
	{ "s": "СГЕНЕРИРОВАННЫЙ", "p": [27] },
	{ "s": "СГЕНЕРИРОВАННЫМ", "p": [26] },
	{ "s": "СГЕНЕРИРОВАНЫ", "p": [26] },
	{ "s": "СГРУППИРОВАТЬ", "p": [14] },
	{ "s": "СДЕЛАТЬ", "p": [43, 38, 35, 22, 19] },
	{ "s": "СЕБЯ", "p": [32, 29] },
	{ "s": "СЕРВИС", "p": [5] },
	{ "s": "СЕРИЙННОЕ", "p": [25] },
	{ "s": "СЕРИЙНОЕ", "p": [25] },
	{ "s": "СЕРОМ", "p": [40, 13] },
	{ "s": "СЕРЫМИ", "p": [25] },
	{ "s": "СЕТКА", "p": [5] },
	{ "s": "СИЛУЭТЫ", "p": [26] },
	{ "s": "СИМВОЛОМ", "p": [36] },
	{ "s": "СИМВОЛЫ", "p": [9] },
	{ "s": "СИНИЕ", "p": [14] },
	{ "s": "СИНЯЯ", "p": [25, 14] },
	{ "s": "СКАЗАТЬ", "p": [5] },
	{ "s": "СКРЫВАЕТ", "p": [25] },
	{ "s": "СКРЫТЫ", "p": [25] },
	{ "s": "СКРЫТЬ", "p": [14, 39, 25] },
	{ "s": "СЛЕВА", "p": [24, 22, 39, 25, 14, 13] },
	{ "s": "СЛЕДУЮЩЕЕ", "p": [25] },
	{ "s": "СЛЕДУЮЩЕЙ", "p": [15, 7] },
	{ "s": "СЛЕДУЮЩИМ", "p": [6] },
	{ "s": "СЛЕДУЮЩИМИ", "p": [26] },
	{ "s": "СЛИВАНИЕ", "p": [5] },
	{ "s": "СЛИВАТЬСЯ", "p": [5] },
	{ "s": "СЛИВАЮЩИХСЯ", "p": [5] },
	{ "s": "СЛОВО", "p": [12, 5] },
	{ "s": "СЛОИ", "p": [14] },
	{ "s": "СЛУЖЕБНЫЙ", "p": [9] },
	{ "s": "СЛУЧАЕ", "p": [38, 25, 23, 14, 5] },
	{ "s": "СЛУЧАЕВ", "p": [14] },
	{ "s": "СЛУЧАИ", "p": [41] },
	{ "s": "СМ", "p": [34, 25] },
	{ "s": "СМЕТА", "p": [5] },
	{ "s": "СМЕТЫ", "p": [5] },
	{ "s": "СМЕТЫ/ЗАКАЗА", "p": [5] },
	{ "s": "СМОДЕЛИРОВАТЬ", "p": [19] },
	{ "s": "СМОЖЕТ", "p": [29] },
	{ "s": "СНАЧАЛА", "p": [22] },
	{ "s": "СО", "p": [32, 29, 23, 14] },
	{ "s": "СОБОЙ", "p": [23] },
	{ "s": "СОДЕРЖАТ", "p": [32] },
	{ "s": "СОДЕРЖАТЬ", "p": [36] },
	{ "s": "СОДЕРЖАЩИХ", "p": [32] },
	{ "s": "СОДЕРЖИМОЕ", "p": [14] },
	{ "s": "СОЕДИНЕНИЯ", "p": [25] },
	{ "s": "СОЕДИНЕННОГО", "p": [5] },
	{ "s": "СОЗДАЕТСЯ", "p": [5] },
	{ "s": "СОЗДАНИЕ", "p": [15, 9, 26, 27] },
	{ "s": "СОЗДАНИЯ", "p": [13, 9, 4] },
	{ "s": "СОЗДАННЫЙ", "p": [3] },
	{ "s": "СОЗДАННЫМ", "p": [21] },
	{ "s": "СОЗДАНЫ", "p": [5] },
	{ "s": "СОЗДАТЬ", "p": [25, 5, 16, 12, 4] },
	{ "s": "СОЗДАЮТСЯ", "p": [26] },
	{ "s": "СОКРАТИТЬ", "p": [25] },
	{ "s": "СООБЩЕНИЙ", "p": [5] },
	{ "s": "СООБЩЕНИЯ", "p": [5] },
	{ "s": "СООТВЕТСТВУЮЩИХ", "p": [29] },
	{ "s": "СОПРИКОСНОВЕНИЯ", "p": [25] },
	{ "s": "СОСЕДНИЕ", "p": [5] },
	{ "s": "СОСТОИТ", "p": [5] },
	{ "s": "СОСТОЯНИЯ", "p": [8] },
	{ "s": "СОСТОЯЩИХ", "p": [5] },
	{ "s": "СОСТЫКОВЫВАЮТСЯ", "p": [23] },
	{ "s": "СОХР", "p": [5] },
	{ "s": "СОХРАНЕНА", "p": [5] },
	{ "s": "СОХРАНЕНИЕ", "p": [10, 7] },
	{ "s": "СОХРАНЕНИЯ", "p": [10] },
	{ "s": "СОХРАНЕННОГО", "p": [25] },
	{ "s": "СОХРАНИТЬ", "p": [10, 40, 5, 39, 4] },
	{ "s": "СОХРАНЯЕТ", "p": [25] },
	{ "s": "СОХРАНЯЕТСЯ", "p": [4] },
	{ "s": "СОХРАНЯТЬ", "p": [10] },
	{ "s": "СОХРАНЯЮТСЯ", "p": [10] },
	{ "s": "СОЮЗ", "p": [24] },
	{ "s": "СПЕРЕДИ", "p": [7] },
	{ "s": "СПЕЦИАЛЬНЫЕ", "p": [25, 9] },
	{ "s": "СПЕЦИФИКАЦИИ", "p": [40] },
	{ "s": "СПЕЦИФИКАЦИЮ", "p": [40] },
	{ "s": "СПЕЦИФИКАЦИЯ", "p": [40] },
	{ "s": "СПИНОЙ", "p": [23] },
	{ "s": "СПИНОК", "p": [25] },
	{ "s": "СПИСКА", "p": [37, 24] },
	{ "s": "СПИСКЕ", "p": [5] },
	{ "s": "СПИСОК", "p": [5, 39, 34, 26, 25, 11] },
	{ "s": "СПОСОБОМ", "p": [25] },
	{ "s": "СПРАВА", "p": [24, 29, 25, 22, 14, 11] },
	{ "s": "СРАЗУ", "p": [21] },
	{ "s": "СРЕДИ", "p": [5, 24] },
	{ "s": "СТАНДАРТНАЯ", "p": [6] },
	{ "s": "СТАНДАРТНЫЕ", "p": [30, 26, 25] },
	{ "s": "СТАНДАРТНЫХ", "p": [26, 25] },
	{ "s": "СТАНЕТ", "p": [24] },
	{ "s": "СТАНОВЯТСЯ", "p": [25] },
	{ "s": "СТАТУСА", "p": [23] },
	{ "s": "СТАТУСЕ", "p": [4] },
	{ "s": "СТВОРОК", "p": [17] },
	{ "s": "СТЕН", "p": [16, 26, 15, 32, 23, 22] },
	{ "s": "СТЕНА", "p": [26, 16] },
	{ "s": "СТЕНАМИ", "p": [23] },
	{ "s": "СТЕНАХ", "p": [19] },
	{ "s": "СТЕНЕ", "p": [23, 26, 16] },
	{ "s": "СТЕНОВОЙ", "p": [32] },
	{ "s": "СТЕНОВЫХ", "p": [32, 19, 3] },
	{ "s": "СТЕНУ", "p": [23, 22, 17, 16, 15] },
	{ "s": "СТЕНЫ", "p": [23, 16, 15, 26, 14, 32, 5] },
	{ "s": "СТЕНЫ/КОЛОННЫ", "p": [15] },
	{ "s": "СТОЛ", "p": [4] },
	{ "s": "СТОЛЕШНИЦ", "p": [32, 5, 25, 3] },
	{ "s": "СТОЛЕШНИЦЕ", "p": [19] },
	{ "s": "СТОЛЕШНИЦЫ", "p": [24, 7] },
	{ "s": "СТОРОНУ", "p": [24] },
	{ "s": "СТОРОНЫ", "p": [23, 22] },
	{ "s": "СТРАНИЦА", "p": [1, 5] },
	{ "s": "СТРАНИЦЕ", "p": [9] },
	{ "s": "СТРЕЛКА", "p": [29, 27, 7] },
	{ "s": "СТРЕЛКАМИ", "p": [14] },
	{ "s": "СТРЕЛКЕ", "p": [15] },
	{ "s": "СТРЕЛКИ", "p": [23] },
	{ "s": "СТРЕЛКУ", "p": [25] },
	{ "s": "СТРЕЛОЧЕК", "p": [25] },
	{ "s": "СТРЕЛОЧКАХ", "p": [25] },
	{ "s": "СТРЕЛОЧКИ", "p": [25] },
	{ "s": "СТРОКА", "p": [22] },
	{ "s": "СТРОКЕ", "p": [8] },
	{ "s": "СТРОКИ", "p": [25] },
	{ "s": "СТРУКТУРЫ", "p": [5] },
	{ "s": "СТЫКОВКА", "p": [23] },
	{ "s": "СТЫКОВКУ", "p": [23] },
	{ "s": "СУЩЕСТВЕННО", "p": [10] },
	{ "s": "СФОРМИРОВАН", "p": [40] },
	{ "s": "СФОРМИРОВАНЫ", "p": [34] },
	{ "s": "СФОРМИРОВАТЬ", "p": [34] },
	{ "s": "СХЕМОЙ", "p": [32] },
	{ "s": "СХЕМЫ", "p": [34] },
	{ "s": "СЦЕНА", "p": [26, 22] },
	{ "s": "СЦЕНЕ", "p": [29, 39, 22] },
	{ "s": "СЦЕНУ", "p": [21] },
	{ "s": "СЦЕНЫ", "p": [25, 29] },
	{ "s": "СЦЕПКА", "p": [23] },
	{ "s": "СЦЕПЛЯЕТСЯ", "p": [23] }
]