[
	{ "s": "ШАГ", "p": [7] },
	{ "s": "ШАКАФАХ", "p": [21] },
	{ "s": "ШАРА", "p": [22] },
	{ "s": "ШИРИНА", "p": [24] },
	{ "s": "ШИРИНЕ", "p": [25, 22] },
	{ "s": "ШИРИНОЙ", "p": [24] },
	{ "s": "ШИРИНУ", "p": [24] },
	{ "s": "ШКАЛУ", "p": [39] },
	{ "s": "ШКАЛЫ", "p": [25] },
	{ "s": "ШКАФ", "p": [43, 36] },
	{ "s": "ШКАФА", "p": [22] },
	{ "s": "ШКАФОВ", "p": [32, 23, 22, 3] },
	{ "s": "ШКАФУ", "p": [36] },
	{ "s": "ШКАФЫ", "p": [39, 25] },
	{ "s": "ШТОРЫ", "p": [17] },
	{ "s": "ШТУКАТУРКИ", "p": [16] },
	{ "s": "ШУГ", "p": [22] }
]