[
	{ "s": "F", "p": [23, 14, 7] },
	{ "s": "F1", "p": [7, 24] },
	{ "s": "F2", "p": [7, 29, 26] },
	{ "s": "F3", "p": [7] },
	{ "s": "F4", "p": [7] },
	{ "s": "F5", "p": [7] },
	{ "s": "FARM", "p": [5] },
	{ "s": "FOTO", "p": [5] }
]