[
	{ "s": "И", "p": [25, 29, 5, 14, 32, 22, 23, 39, 40, 17, 10, 19, 30, 27, 18, 16, 44, 35, 26, 24, 9, 8, 37, 36, 34, 6, 4, 3] },
	{ "s": "И/ИЛИ", "p": [25, 23] },
	{ "s": "ИГНОРИРОВАНИЕ", "p": [27] },
	{ "s": "ИДЕАЛЬНО", "p": [29] },
	{ "s": "ИДЕАЛЬНУЮ", "p": [23] },
	{ "s": "ИДЕТ", "p": [5] },
	{ "s": "ИЗ", "p": [9, 5, 4, 3, 25, 18, 17, 14, 40, 32, 27, 26, 21, 19, 15, 11] },
	{ "s": "ИЗДЕЛИЕ", "p": [5, 26] },
	{ "s": "ИЗДЕЛИИ", "p": [27] },
	{ "s": "ИЗДЕЛИЙ", "p": [24, 22, 5, 29, 7] },
	{ "s": "ИЗДЕЛИЮ", "p": [22] },
	{ "s": "ИЗДЕЛИЯ", "p": [24, 22, 7, 5, 26, 23] },
	{ "s": "ИЗДЕЛИЯМ", "p": [21] },
	{ "s": "ИЗДЕЛИЯХ", "p": [21] },
	{ "s": "ИЗЕЛИЯ", "p": [5] },
	{ "s": "ИЗМЕНЁННЫХ", "p": [21] },
	{ "s": "ИЗМЕНЕИЯ", "p": [22] },
	{ "s": "ИЗМЕНЕНИЕ", "p": [21, 16, 14] },
	{ "s": "ИЗМЕНЕНИЯ", "p": [21, 22, 19, 10] },
	{ "s": "ИЗМЕНЕННЫЙ", "p": [21] },
	{ "s": "ИЗМЕНИТЬ", "p": [29, 25, 24, 17, 16, 14] },
	{ "s": "ИЗМЕНЯЕТ", "p": [24] },
	{ "s": "ИЗМЕНЯТЬ", "p": [5, 24, 14, 29, 25] },
	{ "s": "ИЗМЕНЯТЬСЯ", "p": [14] },
	{ "s": "ИЗМЕРИТЬ", "p": [14] },
	{ "s": "ИЗМЕРЯТЬ", "p": [14] },
	{ "s": "ИЗНАЧАЛЬНО", "p": [24] },
	{ "s": "ИЗОБРАЖЕНИЕ", "p": [39, 32, 5] },
	{ "s": "ИЗОБРАЖЕНИЕМ", "p": [39] },
	{ "s": "ИЗОБРАЖЕНИИ", "p": [22] },
	{ "s": "ИЗОБРАЖЕНИЙ", "p": [39] },
	{ "s": "ИКОНКИ", "p": [5] },
	{ "s": "ИКОНКУ", "p": [39] },
	{ "s": "ИЛИ", "p": [24, 25, 22, 6, 27, 26, 23, 5, 44, 39, 36, 35, 29, 14] },
	{ "s": "ИМ", "p": [32] },
	{ "s": "ИМЕЕТ", "p": [29] },
	{ "s": "ИМЕЕТСЯ", "p": [5, 13] },
	{ "s": "ИМЕТЬ", "p": [23] },
	{ "s": "ИМЕЮТ", "p": [22, 5] },
	{ "s": "ИМЕЮТСЯ", "p": [30, 7] },
	{ "s": "ИМЯ", "p": [5] },
	{ "s": "ИНСТРУКЦИЯ", "p": [9, 2, 1] },
	{ "s": "ИНСТРУМЕНТ", "p": [38] },
	{ "s": "ИНСТРУМЕНТОВ", "p": [29, 23, 22, 5, 39, 35, 27, 26, 25, 14, 11, 10] },
	{ "s": "ИНСТРУМЕНТЫ", "p": [25, 22] },
	{ "s": "ИНТЕНСИВНОСТЬ", "p": [29] },
	{ "s": "ИНТЕРФЕЙС", "p": [22, 14, 5, 27, 26] },
	{ "s": "ИНТЕРФЕЙСУ", "p": [27] },
	{ "s": "ИНФОРМАЦИЮ", "p": [32] },
	{ "s": "ИНФОРМАЦИЯ", "p": [9] },
	{ "s": "ИНФРАСТРУКТУРУ", "p": [5] },
	{ "s": "ИСКЛЮЧАТЬ", "p": [24] },
	{ "s": "ИСКЛЮЧЕНИЕМ", "p": [14] },
	{ "s": "ИСКЛЮЧИТЕЛЬНО", "p": [25] },
	{ "s": "ИСПОЛЬЗОВАНИЕМ", "p": [6] },
	{ "s": "ИСПОЛЬЗОВАНИИ", "p": [19] },
	{ "s": "ИСПОЛЬЗОВАТЬ", "p": [25, 5] },
	{ "s": "ИСПОЛЬЗУЕМОЙ", "p": [5] },
	{ "s": "ИСПОЛЬЗУЕМЫЕ", "p": [6] },
	{ "s": "ИСПОЛЬЗУЕТСЯ", "p": [5, 30, 14, 6] },
	{ "s": "ИСПОЛЬЗУЙТЕ", "p": [25, 9] },
	{ "s": "ИСПОЛЬЗУЯ", "p": [25] },
	{ "s": "ИСТОЧНИК", "p": [29] },
	{ "s": "ИСТОЧНИКА", "p": [29] },
	{ "s": "ИСТОЧНИКИ", "p": [29] },
	{ "s": "ИСТОЧНИКОВ", "p": [29] },
	{ "s": "ИТОГОВУЮ", "p": [32] },
	{ "s": "ИХ", "p": [14, 25, 39, 32, 30, 29, 21] }
]