[
	{ "s": "3", "p": [23, 9, 44, 40, 30, 29, 28, 27, 26, 25, 24, 22, 21, 20, 16, 6, 42, 39, 38, 32, 4, 3] },
	{ "s": "3.1", "p": [21] },
	{ "s": "3.2", "p": [22] },
	{ "s": "3.3", "p": [23] },
	{ "s": "3.4", "p": [24] },
	{ "s": "3.5", "p": [25] },
	{ "s": "3.6", "p": [26] },
	{ "s": "3.7", "p": [27] },
	{ "s": "3.8", "p": [28] },
	{ "s": "3.8.1", "p": [29] },
	{ "s": "3.8.2", "p": [30] },
	{ "s": "300", "p": [24] },
	{ "s": "300;450", "p": [24] },
	{ "s": "3CAD", "p": [4, 3, 11, 9, 40, 36, 32, 10, 1] },
	{ "s": "3CADEVOLUTION", "p": [6, 5] },
	{ "s": "3D", "p": [22] }
]