[
	{ "s": "ЭКРАН", "p": [22, 39] },
	{ "s": "ЭКРАНА", "p": [40] },
	{ "s": "ЭКРАНЕ", "p": [29, 25, 9, 5] },
	{ "s": "ЭКСПОРТА", "p": [32] },
	{ "s": "ЭЛЕМЕНТ", "p": [25, 22, 17, 39, 19, 18] },
	{ "s": "ЭЛЕМЕНТА", "p": [25, 18, 14, 24, 22, 21, 19, 17, 5] },
	{ "s": "ЭЛЕМЕНТАМИ", "p": [25] },
	{ "s": "ЭЛЕМЕНТОВ", "p": [25, 5, 32, 17, 13] },
	{ "s": "ЭЛЕМЕНТЫ", "p": [14, 44, 19, 42, 25, 24, 5] },
	{ "s": "ЭСКИЗ", "p": [40, 9] },
	{ "s": "ЭСКИЗА", "p": [34, 33, 38] },
	{ "s": "ЭСКИЗЕ", "p": [38, 40] },
	{ "s": "ЭСКИЗОВ", "p": [40] },
	{ "s": "ЭТА", "p": [23, 25, 22, 5] },
	{ "s": "ЭТИ", "p": [29, 26, 25, 23, 14] },
	{ "s": "ЭТИМ", "p": [32] },
	{ "s": "ЭТИХ", "p": [25] },
	{ "s": "ЭТО", "p": [25, 24, 37, 35, 29, 14, 5] },
	{ "s": "ЭТОГО", "p": [11, 39, 34, 29, 40, 37, 25, 19, 12, 5, 4] },
	{ "s": "ЭТОЙ", "p": [5, 26] },
	{ "s": "ЭТОМ", "p": [32, 22, 14, 4] },
	{ "s": "ЭТОТ", "p": [22, 12, 5] },
	{ "s": "ЭТУ", "p": [29, 5] },
	{ "s": "ЭФФЕКТОВ", "p": [29] },
	{ "s": "ЭФФЕКТЫ", "p": [25, 5] }
]