[
	{ "s": "О", "p": [5, 32, 29, 14, 9] },
	{ "s": "ОБ", "p": [21] },
	{ "s": "ОБЛАСТИ", "p": [29] },
	{ "s": "ОБЛАСТЬ", "p": [14] },
	{ "s": "ОБНОВЛЕНИЕ", "p": [8, 5] },
	{ "s": "ОБНОВЛЕНИЙ", "p": [8] },
	{ "s": "ОБНОВЛЕНИЯ", "p": [8, 9] },
	{ "s": "ОБНОВЛЯТЬ", "p": [8] },
	{ "s": "ОБОЗНАЧЕНИЯМИ", "p": [27] },
	{ "s": "ОБОЗНАЧЕННЫХ", "p": [5] },
	{ "s": "ОБОЗНАЧЕНЫ", "p": [40, 36] },
	{ "s": "ОБОЗНАЧИТЬ", "p": [38] },
	{ "s": "ОБРАЗОМ", "p": [6, 5, 29, 25] },
	{ "s": "ОБРАЗУЯ", "p": [29] },
	{ "s": "ОБРАЩАЕМ", "p": [23] },
	{ "s": "ОБСТАНОВКИ", "p": [14] },
	{ "s": "ОБУСЛАВЛИВАТЬСЯ", "p": [5] },
	{ "s": "ОБУСЛОВЛЕНО", "p": [14] },
	{ "s": "ОБЩИЕ", "p": [37, 21] },
	{ "s": "ОБЩИЙ", "p": [26] },
	{ "s": "ОБЪЕКТ", "p": [25, 22] },
	{ "s": "ОБЪЕКТА", "p": [6, 25, 23, 22, 14] },
	{ "s": "ОБЪЕКТАМ", "p": [14] },
	{ "s": "ОБЪЕКТАМИ", "p": [23] },
	{ "s": "ОБЪЕКТОВ", "p": [14, 30, 26, 25, 23] },
	{ "s": "ОБЪЕКТОМ", "p": [23] },
	{ "s": "ОБЪЕКТЫ", "p": [14, 30] },
	{ "s": "ОБЪЕМ", "p": [25] },
	{ "s": "ОБЪЯСНЯТЬ", "p": [5] },
	{ "s": "ОБЫЧНОЙ", "p": [22] },
	{ "s": "ОГРАНИЧЕНИЙ", "p": [24, 23] },
	{ "s": "ОГРАНИЧЕННЫХ", "p": [24] },
	{ "s": "ОДИН", "p": [6] },
	{ "s": "ОДНИМ", "p": [38] },
	{ "s": "ОДНОВРЕМЕННО", "p": [25] },
	{ "s": "ОДНОВРЕМЕННОГО", "p": [25] },
	{ "s": "ОДНОГО", "p": [25, 14, 5] },
	{ "s": "ОДНОЙ", "p": [14, 11] },
	{ "s": "ОДНОМ", "p": [25, 10] },
	{ "s": "ОДНУ", "p": [25] },
	{ "s": "ОК", "p": [39, 11] },
	{ "s": "ОКНА", "p": [17, 14, 35, 34, 26, 21, 13, 8, 5] },
	{ "s": "ОКНАХ", "p": [40] },
	{ "s": "ОКНЕ", "p": [11, 43, 42, 39, 38, 36, 35, 34, 25, 24, 22, 19, 17, 14, 9, 5] },
	{ "s": "ОКНО", "p": [21, 39, 38, 16, 29, 27, 26, 25, 24, 22, 18, 17, 13, 11, 10, 8, 7, 5] },
	{ "s": "ОКНО-ГАЛКА", "p": [17] },
	{ "s": "ОКНОМ", "p": [17] },
	{ "s": "ОКНУ", "p": [22, 14] },
	{ "s": "ОКОНЧАНИЯ", "p": [32, 15] },
	{ "s": "ОКОШКЕ", "p": [26] },
	{ "s": "ОКРУЖЕНИЯ", "p": [14] },
	{ "s": "ОКРУЖНОСТИ", "p": [29] },
	{ "s": "ОН", "p": [29, 8, 5] },
	{ "s": "ОНА", "p": [14, 5] },
	{ "s": "ОНИ", "p": [29, 25, 39, 27, 26, 23, 7] },
	{ "s": "ОНО", "p": [23, 6] },
	{ "s": "ОПЕРАТОР", "p": [29] },
	{ "s": "ОПЕРАЦИИ", "p": [14] },
	{ "s": "ОПЕРАЦИЙ", "p": [5] },
	{ "s": "ОПИСАН", "p": [27, 25] },
	{ "s": "ОПИСАНИЕ", "p": [32, 24, 22, 5] },
	{ "s": "ОПИСАНИЕМ", "p": [24, 5] },
	{ "s": "ОПИСАНИЙ", "p": [5] },
	{ "s": "ОПИСАНИЮ", "p": [22] },
	{ "s": "ОПРЕДЕЛЕННОЕ", "p": [29] },
	{ "s": "ОПРЕДЕЛЕННОМ", "p": [26] },
	{ "s": "ОПРЕДЕЛЕННЫМ", "p": [7] },
	{ "s": "ОПРЕДЕЛИТЕ", "p": [39] },
	{ "s": "ОПРЕДЕЛИТЬ", "p": [25] },
	{ "s": "ОПРЕДЕЛЯТЬ", "p": [25] },
	{ "s": "ОПТИМАЛЬНО", "p": [6] },
	{ "s": "ОПУСКАЕТ", "p": [23] },
	{ "s": "ОПЦИЯ", "p": [25] },
	{ "s": "ОРАНЖЕВЫЙ", "p": [16] },
	{ "s": "ОСВЕЩАЕТ", "p": [29] },
	{ "s": "ОСВЕЩЕНИЕ", "p": [29, 22, 5] },
	{ "s": "ОСВЕЩЕНИЯ", "p": [29] },
	{ "s": "ОСЕЙ", "p": [25] },
	{ "s": "ОСИ", "p": [25, 5] },
	{ "s": "ОСНОВАННЫХ", "p": [29] },
	{ "s": "ОСНОВНОЙ", "p": [5] },
	{ "s": "ОСНОВНОМ", "p": [5] },
	{ "s": "ОСНОВНЫЕ", "p": [3] },
	{ "s": "ОСНОВНЫМИ", "p": [5] },
	{ "s": "ОСОБЕННОСТИ", "p": [36] },
	{ "s": "ОСОБЫЕ", "p": [41] },
	{ "s": "ОСОБЫХ", "p": [5] },
	{ "s": "ОСТАВАЯСЬ", "p": [24] },
	{ "s": "ОСТАВИТЬ", "p": [25, 14] },
	{ "s": "ОСТАЛЬНЫЕ", "p": [39, 26, 3] },
	{ "s": "ОСТАЛЬНЫХ", "p": [21] },
	{ "s": "ОСТАНУТСЯ", "p": [39] },
	{ "s": "ОСТОРОЖНЫ", "p": [9] },
	{ "s": "ОСУЩЕСТВЛЯЕТСЯ", "p": [3] },
	{ "s": "ОСЬ", "p": [25] },
	{ "s": "ОТ", "p": [29, 23, 25, 22, 35, 27, 24, 14, 11, 5] },
	{ "s": "ОТВЕТАМИ", "p": [5] },
	{ "s": "ОТВЕТЫ", "p": [5] },
	{ "s": "ОТДЕЛКА", "p": [16] },
	{ "s": "ОТДЕЛКИ", "p": [16] },
	{ "s": "ОТДЕЛКОЙ", "p": [5] },
	{ "s": "ОТДЕЛЬНО", "p": [22] },
	{ "s": "ОТДЕЛЬНОЕ", "p": [36] },
	{ "s": "ОТДЕЛЬНОСТИ", "p": [21] },
	{ "s": "ОТДЕЛЬНЫЕ", "p": [39] },
	{ "s": "ОТДЕЛЬНЫЙ", "p": [39] },
	{ "s": "ОТДЕЛЬНЫХ", "p": [40] },
	{ "s": "ОТКЛЮЧИТЬ", "p": [29, 14] },
	{ "s": "ОТКРОЕТ", "p": [18] },
	{ "s": "ОТКРОЕТСЯ", "p": [4, 39, 25, 24, 22, 21, 16, 14, 13, 11, 5] },
	{ "s": "ОТКРОЙТЕ", "p": [39, 29] },
	{ "s": "ОТКРЫВАЕТ", "p": [14] },
	{ "s": "ОТКРЫВАЕТСЯ", "p": [22, 11, 6, 5] },
	{ "s": "ОТКРЫВАНИЯ", "p": [22] },
	{ "s": "ОТКРЫВАТ", "p": [24] },
	{ "s": "ОТКРЫВШЕМСЯ", "p": [39, 36] },
	{ "s": "ОТКРЫТАЯ", "p": [42] },
	{ "s": "ОТКРЫТИЕ", "p": [11] },
	{ "s": "ОТКРЫТИИ", "p": [11] },
	{ "s": "ОТКРЫТИЯ", "p": [24] },
	{ "s": "ОТКРЫТЬ", "p": [25, 11, 4, 24, 22, 5] },
	{ "s": "ОТКУДА", "p": [23] },
	{ "s": "ОТЛИЧАТЬСЯ", "p": [10] },
	{ "s": "ОТМЕНА", "p": [14, 7] },
	{ "s": "ОТМЕНЯТЬ", "p": [22] },
	{ "s": "ОТМЕТИВ", "p": [21] },
	{ "s": "ОТМЕТЬТЕ", "p": [40] },
	{ "s": "ОТНОСИТЕЛЬНО", "p": [32, 25, 5] },
	{ "s": "ОТНОСИТСЯ", "p": [5] },
	{ "s": "ОТНОСИТЬСЯ", "p": [38] },
	{ "s": "ОТНОСЯТСЯ", "p": [27] },
	{ "s": "ОТНОСЯЩИХСЯ", "p": [5] },
	{ "s": "ОТНОШЕНИЮ", "p": [23, 14] },
	{ "s": "ОТОБРАЖАЕТ", "p": [25, 23, 22] },
	{ "s": "ОТОБРАЖАЕТСЯ", "p": [23] },
	{ "s": "ОТОБРАЖАТЬСЯ", "p": [11] },
	{ "s": "ОТОБРАЖАЯ", "p": [25] },
	{ "s": "ОТОБРАЖЕНИЕ", "p": [23, 14] },
	{ "s": "ОТОБРАЖЕНИЯ", "p": [25, 5] },
	{ "s": "ОТОБРАЖЕННЫЕ", "p": [14] },
	{ "s": "ОТОБРАЗИТСЯ", "p": [25, 22] },
	{ "s": "ОТПРАВКА", "p": [40] },
	{ "s": "ОТПРАВКОЙ", "p": [40, 34] },
	{ "s": "ОТПРАВЛЯЕТСЯ", "p": [32] },
	{ "s": "ОТПУСТИТЬ", "p": [25] },
	{ "s": "ОТРАЖАЕТСЯ", "p": [11] },
	{ "s": "ОТРАЖЕНЫ", "p": [27] },
	{ "s": "ОТРАЗИТСЯ", "p": [38, 37] },
	{ "s": "ОТРЕДАКТИРОВАТЬ", "p": [3] },
	{ "s": "ОТРИЦАТЕЛЬНОЕ", "p": [25] },
	{ "s": "ОФОРМЛЕНИЯ", "p": [4] },
	{ "s": "ОЧИЩАЕТ", "p": [14] },
	{ "s": "ОШИБКИ", "p": [14] }
]