xof 0302txt 0032
Header {
 1;
 0;
 1;
}
template Header {
 <3D82AB43-62DA-11cf-AB39-0020AF71E433>
 WORD major;
 WORD minor;
 DWORD flags;
}

template Vector {
 <3D82AB5E-62DA-11cf-AB39-0020AF71E433>
 FLOAT x;
 FLOAT y;
 FLOAT z;
}

template Coords2d {
 <F6F23F44-7686-11cf-8F52-0040333594A3>
 FLOAT u;
 FLOAT v;
}

template Matrix4x4 {
 <F6F23F45-7686-11cf-8F52-0040333594A3>
 array FLOAT matrix[16];
}

template ColorRGBA {
 <35FF44E0-6C7C-11cf-8F52-0040333594A3>
 FLOAT red;
 FLOAT green;
 FLOAT blue;
 FLOAT alpha;
}

template ColorRGB {
 <D3E16E81-7835-11cf-8F52-0040333594A3>
 FLOAT red;
 FLOAT green;
 FLOAT blue;
}

template TextureFilename {
 <A42790E1-7810-11cf-8F52-0040333594A3>
 STRING filename;
}

template Material {
 <3D82AB4D-62DA-11cf-AB39-0020AF71E433>
 ColorRGBA faceColor;
 FLOAT power;
 ColorRGB specularColor;
 ColorRGB emissiveColor;
 [...]
}

template MeshFace {
 <3D82AB5F-62DA-11cf-AB39-0020AF71E433>
 DWORD nFaceVertexIndices;
 array DWORD faceVertexIndices[nFaceVertexIndices];
}

template MeshTextureCoords {
 <F6F23F40-7686-11cf-8F52-0040333594A3>
 DWORD nTextureCoords;
 array Coords2d textureCoords[nTextureCoords];
}

template MeshMaterialList {
 <F6F23F42-7686-11cf-8F52-0040333594A3>
 DWORD nMaterials;
 DWORD nFaceIndexes;
 array DWORD faceIndexes[nFaceIndexes];
 [Material]
}

template MeshNormals {
 <F6F23F43-7686-11cf-8F52-0040333594A3>
 DWORD nNormals;
 array Vector normals[nNormals];
 DWORD nFaceNormals;
 array MeshFace faceNormals[nFaceNormals];
}

template Mesh {
 <3D82AB44-62DA-11cf-AB39-0020AF71E433>
 DWORD nVertices;
 array Vector vertices[nVertices];
 DWORD nFaces;
 array MeshFace faces[nFaces];
 [...]
}

template FrameTransformMatrix {
 <F6F23F41-7686-11cf-8F52-0040333594A3>
 Matrix4x4 frameMatrix;
}

template Frame {
 <3D82AB46-62DA-11cf-AB39-0020AF71E433>
 [...]
}

Frame Rectangle01rrr {
   FrameTransformMatrix {
-0.000000,0.000000,-1.000000,0.000000,
1.000000,0.000000,-0.000000,0.000000,
0.000000,-1.000000,0.000000,0.000000,
830.000122,10.000000,-830.000061,1.000000;;
 }
Mesh Rectangle01rrr1 {
 184;
-830.000000;-830.000183;10.000004;,
-330.000031;-830.000061;-0.000006;,
-830.000000;-830.000122;0.000004;,
-330.000000;-830.000122;9.999994;,
-0.000097;-0.000086;10.000498;,
-0.000014;-500.000092;0.000498;,
-0.000014;-500.000092;10.000498;,
-0.000097;-0.000086;0.000498;,
-830.000061;-225.528381;10.000004;,
-830.000000;-830.000122;0.000004;,
-830.000061;-225.528320;0.000004;,
-830.000000;-830.000122;0.000004;,
-830.000061;-225.528381;10.000004;,
-830.000000;-830.000183;10.000004;,
-830.000061;-225.528381;10.000004;,
-611.902588;-0.000113;-0.000002;,
-611.902588;-0.000174;9.999998;,
-611.902588;-0.000113;-0.000002;,
-830.000061;-225.528381;10.000004;,
-830.000061;-225.528320;0.000004;,
-330.000031;-500.000153;9.999994;,
-330.000031;-830.000061;-0.000006;,
-330.000000;-830.000122;9.999994;,
-330.000031;-830.000061;-0.000006;,
-330.000031;-500.000153;9.999994;,
-330.000061;-500.000092;-0.000006;,
-0.000097;-0.000086;0.000498;,
-330.000153;-0.000100;9.999994;,
-330.000122;-0.000100;-0.000006;,
-330.000153;-0.000100;9.999994;,
-0.000097;-0.000086;0.000498;,
-0.000097;-0.000086;10.000498;,
-0.000014;-500.000092;0.000498;,
-330.000122;-0.000100;-0.000006;,
-330.000061;-500.000092;-0.000006;,
-0.000097;-0.000086;0.000498;,
-0.000014;-500.000092;10.000498;,
-330.000061;-500.000092;-0.000006;,
-330.000031;-500.000153;9.999994;,
-330.000061;-500.000092;-0.000006;,
-0.000014;-500.000092;10.000498;,
-0.000014;-500.000092;0.000498;,
-0.000097;-0.000086;10.000498;,
-330.000031;-500.000153;9.999994;,
-330.000153;-0.000100;9.999994;,
-0.000014;-500.000092;10.000498;,
-611.902588;-0.000174;9.999998;,
-330.000122;-0.000100;-0.000006;,
-611.902588;-0.000174;9.999998;,
-611.902588;-0.000113;-0.000002;,
-381.298004;-479.543610;189.999969;,
-369.377502;-510.420380;-0.000008;,
-381.298004;-479.543549;0.000000;,
-369.377472;-510.420441;189.999954;,
-369.377502;-732.397095;-0.000008;,
-369.377441;-732.397156;189.999954;,
-381.297943;-763.273926;0.000000;,
-381.297913;-763.273987;189.999969;,
-405.089569;-778.481140;0.000008;,
-405.089539;-778.481201;189.999985;,
-439.591278;-781.922180;0.000008;,
-439.591248;-781.922241;189.999985;,
-719.591431;-781.922180;-0.000008;,
-719.591370;-781.922241;189.999954;,
-754.093140;-778.481079;0.000000;,
-754.093079;-778.481201;189.999985;,
-777.884705;-763.273926;0.000008;,
-777.884705;-763.274048;189.999985;,
-789.805237;-732.397156;0.000008;,
-789.805176;-732.397217;189.999985;,
-789.805237;-513.592651;0.000008;,
-789.805237;-513.592712;189.999985;,
-777.884766;-482.715759;0.000008;,
-777.884766;-482.715820;189.999985;,
-754.093140;-461.252808;0.000000;,
-754.093140;-461.252838;189.999985;,
-719.591431;-454.549835;-0.000008;,
-719.591431;-454.549896;189.999954;,
-439.591339;-454.549774;0.000008;,
-439.591339;-454.549835;189.999985;,
-405.089630;-461.252777;0.000008;,
-405.089630;-461.252838;189.999985;,
-401.127319;-493.651917;209.999924;,
-390.398865;-521.441101;209.999908;,
-390.398834;-721.220154;209.999908;,
-401.127258;-749.009277;209.999924;,
-422.539734;-762.695740;209.999939;,
-453.591278;-765.792725;209.999939;,
-705.591370;-765.792725;209.999908;,
-736.642883;-762.695740;209.999939;,
-758.055359;-749.009338;209.999939;,
-768.783813;-721.220215;209.999939;,
-768.783813;-524.296143;209.999939;,
-758.055420;-496.506927;209.999939;,
-736.642944;-477.190247;209.999939;,
-705.591431;-471.157593;209.999908;,
-453.591339;-471.157532;209.999939;,
-422.539795;-477.190216;209.999939;,
-381.298004;-187.251999;189.999969;,
-369.377502;-218.128830;-0.000015;,
-381.298004;-187.251938;0.000000;,
-369.377502;-218.128830;189.999954;,
-369.377502;-370.306366;-0.000015;,
-369.377472;-370.306396;189.999954;,
-381.297943;-401.183167;0.000000;,
-381.297943;-401.183197;189.999969;,
-405.089569;-416.390381;0.000015;,
-405.089569;-416.390411;189.999985;,
-439.591278;-419.831421;0.000015;,
-439.591278;-419.831451;189.999985;,
-599.388062;-419.831451;-0.000015;,
-599.388062;-419.831482;189.999954;,
-633.889771;-416.390381;0.000000;,
-633.889771;-416.390411;189.999985;,
-657.681335;-401.183228;0.000015;,
-657.681335;-401.183258;189.999985;,
-669.601868;-370.306458;0.000015;,
-669.601807;-370.306488;189.999985;,
-669.601868;-221.301025;0.000015;,
-669.601868;-221.301086;189.999985;,
-657.681396;-190.424133;0.000015;,
-657.681396;-190.424194;189.999985;,
-633.889771;-168.961166;0.000000;,
-633.889771;-168.961166;189.999985;,
-599.388062;-162.258224;-0.000015;,
-599.388062;-162.258286;189.999954;,
-439.591339;-162.258224;0.000015;,
-439.591339;-162.258224;189.999985;,
-405.089630;-168.961166;0.000015;,
-405.089630;-168.961227;189.999985;,
-401.127350;-201.360336;209.999924;,
-390.398926;-229.149460;209.999908;,
-390.398865;-359.129364;209.999908;,
-401.127258;-386.918488;209.999924;,
-422.539764;-400.604950;209.999939;,
-453.591309;-403.701935;209.999939;,
-585.388062;-403.701965;209.999908;,
-616.439575;-400.604980;209.999939;,
-637.851990;-386.918579;209.999939;,
-648.580444;-359.129456;209.999939;,
-648.580505;-232.004501;209.999939;,
-637.852051;-204.215256;209.999939;,
-616.439636;-184.898605;209.999939;,
-585.388062;-178.865952;209.999908;,
-453.591339;-178.865952;209.999939;,
-422.539795;-184.898605;209.999939;,
-369.377502;-370.306366;-0.000015;,
-330.000122;-0.000100;-0.000006;,
-369.377502;-218.128830;-0.000015;,
-330.000061;-500.000092;-0.000006;,
-381.297943;-401.183167;0.000000;,
-381.298004;-479.543549;0.000000;,
-369.377502;-510.420380;-0.000008;,
-369.377502;-732.397095;-0.000008;,
-330.000031;-830.000061;-0.000006;,
-381.297943;-763.273926;0.000000;,
-405.089569;-778.481140;0.000008;,
-439.591278;-781.922180;0.000008;,
-719.591431;-781.922180;-0.000008;,
-754.093140;-778.481079;0.000000;,
-830.000000;-830.000122;0.000004;,
-777.884705;-763.273926;0.000008;,
-789.805237;-732.397156;0.000008;,
-830.000061;-225.528320;0.000004;,
-789.805237;-513.592651;0.000008;,
-777.884766;-482.715759;0.000008;,
-405.089630;-461.252777;0.000008;,
-405.089569;-416.390381;0.000015;,
-439.591339;-454.549774;0.000008;,
-439.591278;-419.831421;0.000015;,
-599.388062;-419.831451;-0.000015;,
-633.889771;-416.390381;0.000000;,
-719.591431;-454.549835;-0.000008;,
-657.681335;-401.183228;0.000015;,
-669.601868;-370.306458;0.000015;,
-754.093140;-461.252808;0.000000;,
-669.601868;-221.301025;0.000015;,
-381.298004;-187.251938;0.000000;,
-405.089630;-168.961166;0.000015;,
-439.591339;-162.258224;0.000015;,
-599.388062;-162.258224;-0.000015;,
-611.902588;-0.000113;-0.000002;,
-633.889771;-168.961166;0.000000;,
-657.681396;-190.424133;0.000015;;

 216;
3;2,1,0;,
3;3,0,1;,
3;6,5,4;,
3;7,4,5;,
3;10,9,8;,
3;13,12,11;,
3;16,15,14;,
3;19,18,17;,
3;22,21,20;,
3;25,24,23;,
3;28,27,26;,
3;31,30,29;,
3;34,33,32;,
3;35,32,33;,
3;38,37,36;,
3;41,40,39;,
3;44,43,42;,
3;45,42,43;,
3;27,28,46;,
3;49,48,47;,
3;52,51,50;,
3;53,50,51;,
3;51,54,53;,
3;55,53,54;,
3;54,56,55;,
3;57,55,56;,
3;56,58,57;,
3;59,57,58;,
3;58,60,59;,
3;61,59,60;,
3;60,62,61;,
3;63,61,62;,
3;62,64,63;,
3;65,63,64;,
3;64,66,65;,
3;67,65,66;,
3;66,68,67;,
3;69,67,68;,
3;68,70,69;,
3;71,69,70;,
3;70,72,71;,
3;73,71,72;,
3;72,74,73;,
3;75,73,74;,
3;74,76,75;,
3;77,75,76;,
3;76,78,77;,
3;79,77,78;,
3;78,80,79;,
3;81,79,80;,
3;80,52,81;,
3;50,81,52;,
3;50,53,82;,
3;83,82,53;,
3;53,55,83;,
3;84,83,55;,
3;55,57,84;,
3;85,84,57;,
3;57,59,85;,
3;86,85,59;,
3;59,61,86;,
3;87,86,61;,
3;61,63,87;,
3;88,87,63;,
3;63,65,88;,
3;89,88,65;,
3;65,67,89;,
3;90,89,67;,
3;67,69,90;,
3;91,90,69;,
3;69,71,91;,
3;92,91,71;,
3;71,73,92;,
3;93,92,73;,
3;73,75,93;,
3;94,93,75;,
3;75,77,94;,
3;95,94,77;,
3;77,79,95;,
3;96,95,79;,
3;79,81,96;,
3;97,96,81;,
3;81,50,97;,
3;82,97,50;,
3;96,97,95;,
3;94,95,93;,
3;92,93,91;,
3;93,95,91;,
3;90,91,89;,
3;88,89,87;,
3;89,91,87;,
3;91,95,87;,
3;86,87,85;,
3;84,85,83;,
3;85,87,83;,
3;87,95,83;,
3;95,97,83;,
3;97,82,83;,
3;100,99,98;,
3;101,98,99;,
3;99,102,101;,
3;103,101,102;,
3;102,104,103;,
3;105,103,104;,
3;104,106,105;,
3;107,105,106;,
3;106,108,107;,
3;109,107,108;,
3;108,110,109;,
3;111,109,110;,
3;110,112,111;,
3;113,111,112;,
3;112,114,113;,
3;115,113,114;,
3;114,116,115;,
3;117,115,116;,
3;116,118,117;,
3;119,117,118;,
3;118,120,119;,
3;121,119,120;,
3;120,122,121;,
3;123,121,122;,
3;122,124,123;,
3;125,123,124;,
3;124,126,125;,
3;127,125,126;,
3;126,128,127;,
3;129,127,128;,
3;128,100,129;,
3;98,129,100;,
3;98,101,130;,
3;131,130,101;,
3;101,103,131;,
3;132,131,103;,
3;103,105,132;,
3;133,132,105;,
3;105,107,133;,
3;134,133,107;,
3;107,109,134;,
3;135,134,109;,
3;109,111,135;,
3;136,135,111;,
3;111,113,136;,
3;137,136,113;,
3;113,115,137;,
3;138,137,115;,
3;115,117,138;,
3;139,138,117;,
3;117,119,139;,
3;140,139,119;,
3;119,121,140;,
3;141,140,121;,
3;121,123,141;,
3;142,141,123;,
3;123,125,142;,
3;143,142,125;,
3;125,127,143;,
3;144,143,127;,
3;127,129,144;,
3;145,144,129;,
3;129,98,145;,
3;130,145,98;,
3;144,145,143;,
3;142,143,141;,
3;140,141,139;,
3;141,143,139;,
3;138,139,137;,
3;136,137,135;,
3;137,139,135;,
3;139,143,135;,
3;134,135,133;,
3;132,133,131;,
3;133,135,131;,
3;135,143,131;,
3;143,145,131;,
3;145,130,131;,
3;148,147,146;,
3;147,149,146;,
3;146,149,150;,
3;150,149,151;,
3;151,149,152;,
3;152,149,153;,
3;149,154,153;,
3;153,154,155;,
3;155,154,156;,
3;156,154,157;,
3;157,154,158;,
3;158,154,159;,
3;154,160,159;,
3;159,160,161;,
3;161,160,162;,
3;160,163,162;,
3;162,163,164;,
3;164,163,165;,
3;151,166,150;,
3;150,166,167;,
3;166,168,167;,
3;167,168,169;,
3;169,168,170;,
3;170,168,171;,
3;168,172,171;,
3;171,172,173;,
3;173,172,174;,
3;172,175,174;,
3;175,165,174;,
3;165,163,174;,
3;174,163,176;,
3;148,177,147;,
3;177,178,147;,
3;178,179,147;,
3;179,180,147;,
3;147,180,181;,
3;180,182,181;,
3;182,183,181;,
3;183,176,181;,
3;176,163,181;;
MeshMaterialList {
 1;
 216;
  0,
  0,
  0,
  0,
  0,
  0,
  0,
  0,
  0,
  0,
  0,
  0,
  0,
  0,
  0,
  0,
  0,
  0,
  0,
  0,
  0,
  0,
  0,
  0,
  0,
  0,
  0,
  0,
  0,
  0,
  0,
  0,
  0,
  0,
  0,
  0,
  0,
  0,
  0,
  0,
  0,
  0,
  0,
  0,
  0,
  0,
  0,
  0,
  0,
  0,
  0,
  0,
  0,
  0,
  0,
  0,
  0,
  0,
  0,
  0,
  0,
  0,
  0,
  0,
  0,
  0,
  0,
  0,
  0,
  0,
  0,
  0,
  0,
  0,
  0,
  0,
  0,
  0,
  0,
  0,
  0,
  0,
  0,
  0,
  0,
  0,
  0,
  0,
  0,
  0,
  0,
  0,
  0,
  0,
  0,
  0,
  0,
  0,
  0,
  0,
  0,
  0,
  0,
  0,
  0,
  0,
  0,
  0,
  0,
  0,
  0,
  0,
  0,
  0,
  0,
  0,
  0,
  0,
  0,
  0,
  0,
  0,
  0,
  0,
  0,
  0,
  0,
  0,
  0,
  0,
  0,
  0,
  0,
  0,
  0,
  0,
  0,
  0,
  0,
  0,
  0,
  0,
  0,
  0,
  0,
  0,
  0,
  0,
  0,
  0,
  0,
  0,
  0,
  0,
  0,
  0,
  0,
  0,
  0,
  0,
  0,
  0,
  0,
  0,
  0,
  0,
  0,
  0,
  0,
  0,
  0,
  0,
  0,
  0,
  0,
  0,
  0,
  0,
  0,
  0,
  0,
  0,
  0,
  0,
  0,
  0,
  0,
  0,
  0,
  0,
  0,
  0,
  0,
  0,
  0,
  0,
  0,
  0,
  0,
  0,
  0,
  0,
  0,
  0,
  0,
  0,
  0,
  0,
  0,
  0,
  0,
  0,
  0,
  0,
  0,
  0;;
Material Metal_Chrome_Medium {
 0.752941;0.752941;0.752941;1.000000;;
42.224251;
 1.573647;1.573647;1.573647;;
 0.023529;0.023529;0.023529;;
 }
}

 MeshNormals {
 184;
0.000000;-1.000000;-0.000006;,
0.000000;-1.000000;-0.000006;,
0.000000;-1.000000;-0.000006;,
0.000000;-1.000000;-0.000006;,
1.000000;0.000000;0.000000;,
1.000000;0.000000;0.000000;,
1.000000;0.000000;0.000000;,
1.000000;0.000000;0.000000;,
-1.000000;-0.000000;-0.000000;,
-1.000000;-0.000000;-0.000000;,
-1.000000;-0.000000;-0.000000;,
-1.000000;-0.000000;0.000003;,
-1.000000;-0.000000;0.000003;,
-1.000000;-0.000000;0.000003;,
-0.718850;0.695165;0.000004;,
-0.718850;0.695165;0.000004;,
-0.718850;0.695165;0.000004;,
-0.718850;0.695165;0.000006;,
-0.718850;0.695165;0.000006;,
-0.718850;0.695165;0.000006;,
1.000000;0.000000;-0.000003;,
1.000000;0.000000;-0.000003;,
1.000000;0.000000;-0.000003;,
1.000000;0.000000;-0.000002;,
1.000000;0.000000;-0.000002;,
1.000000;0.000000;-0.000002;,
-0.000000;1.000000;0.000005;,
-0.000000;1.000000;0.000005;,
-0.000000;1.000000;0.000005;,
-0.000000;1.000000;0.000000;,
-0.000000;1.000000;0.000000;,
-0.000000;1.000000;0.000000;,
0.000002;0.000000;-1.000000;,
0.000002;0.000000;-1.000000;,
0.000002;0.000000;-1.000000;,
0.000002;0.000000;-1.000000;,
0.000000;-1.000000;-0.000006;,
0.000000;-1.000000;-0.000006;,
0.000000;-1.000000;-0.000006;,
0.000000;-1.000000;0.000000;,
0.000000;-1.000000;0.000000;,
0.000000;-1.000000;0.000000;,
-0.000002;-0.000000;1.000000;,
-0.000002;-0.000000;1.000000;,
-0.000002;-0.000000;1.000000;,
-0.000002;-0.000000;1.000000;,
-0.000000;1.000000;0.000005;,
-0.000000;1.000000;0.000006;,
-0.000000;1.000000;0.000006;,
-0.000000;1.000000;0.000006;,
-0.734206;-0.547751;-0.401137;,
-0.983080;-0.183178;0.000000;,
-0.800955;-0.598724;-0.000000;,
-0.901190;-0.176199;-0.395994;,
-0.983080;0.183177;0.000000;,
-0.901021;0.176330;-0.396319;,
-0.774261;0.632866;0.000000;,
-0.711893;0.578629;-0.397990;,
-0.327891;0.944716;0.000000;,
-0.319935;0.869675;-0.375908;,
-0.049683;0.998765;0.000000;,
-0.052461;0.938438;-0.341440;,
0.049684;0.998765;0.000000;,
0.052460;0.938438;-0.341440;,
0.327891;0.944716;0.000000;,
0.319934;0.869675;-0.375908;,
0.774260;0.632867;0.000000;,
0.711892;0.578630;-0.397990;,
0.983080;0.183179;-0.000000;,
0.901021;0.176331;-0.396319;,
0.983080;-0.183177;-0.000000;,
0.901532;-0.175927;-0.395335;,
0.823852;-0.566805;-0.000000;,
0.753869;-0.518857;-0.403074;,
0.446578;-0.894745;-0.000000;,
0.424500;-0.819692;-0.384584;,
0.095797;-0.995401;-0.000000;,
0.099231;-0.930216;-0.353344;,
-0.095798;-0.995401;-0.000000;,
-0.099231;-0.930216;-0.353344;,
-0.411094;-0.911593;-0.000000;,
-0.391765;-0.835775;-0.384709;,
-0.309198;-0.233008;-0.922011;,
-0.386502;-0.059947;-0.920338;,
-0.386334;0.059674;-0.920427;,
-0.302205;0.253246;-0.918988;,
-0.114446;0.415795;-0.902229;,
-0.015028;0.435656;-0.899988;,
0.015028;0.435660;-0.899986;,
0.114446;0.415795;-0.902229;,
0.302205;0.253247;-0.918988;,
0.386333;0.059674;-0.920427;,
0.386851;-0.060505;-0.920155;,
0.314929;-0.216348;-0.924128;,
0.164584;-0.384019;-0.908538;,
0.029460;-0.432457;-0.901173;,
-0.029461;-0.432457;-0.901173;,
-0.150134;-0.386527;-0.909976;,
-0.734206;-0.547751;-0.401137;,
-0.983080;-0.183178;-0.000000;,
-0.800955;-0.598724;-0.000000;,
-0.901190;-0.176199;-0.395994;,
-0.983080;0.183178;0.000000;,
-0.901021;0.176331;-0.396319;,
-0.774261;0.632866;0.000000;,
-0.711893;0.578629;-0.397990;,
-0.327891;0.944716;0.000000;,
-0.319935;0.869675;-0.375908;,
-0.049683;0.998765;0.000000;,
-0.052461;0.938438;-0.341440;,
0.049683;0.998765;0.000000;,
0.052461;0.938438;-0.341440;,
0.327891;0.944716;0.000000;,
0.319934;0.869675;-0.375908;,
0.774260;0.632867;0.000000;,
0.711892;0.578630;-0.397990;,
0.983080;0.183179;-0.000000;,
0.901021;0.176331;-0.396319;,
0.983080;-0.183177;-0.000000;,
0.901532;-0.175927;-0.395335;,
0.823852;-0.566805;-0.000000;,
0.753869;-0.518857;-0.403074;,
0.446578;-0.894745;-0.000000;,
0.424500;-0.819692;-0.384584;,
0.095797;-0.995401;-0.000000;,
0.099231;-0.930216;-0.353344;,
-0.095798;-0.995401;-0.000000;,
-0.099231;-0.930216;-0.353344;,
-0.411094;-0.911593;-0.000000;,
-0.391765;-0.835775;-0.384709;,
-0.309198;-0.233008;-0.922011;,
-0.386502;-0.059947;-0.920338;,
-0.386334;0.059674;-0.920427;,
-0.302205;0.253246;-0.918988;,
-0.114446;0.415795;-0.902229;,
-0.015028;0.435655;-0.899988;,
0.015028;0.435661;-0.899985;,
0.114446;0.415795;-0.902229;,
0.302205;0.253247;-0.918988;,
0.386333;0.059674;-0.920427;,
0.386851;-0.060505;-0.920155;,
0.314929;-0.216348;-0.924128;,
0.164584;-0.384019;-0.908538;,
0.029460;-0.432457;-0.901173;,
-0.029460;-0.432456;-0.901174;,
-0.150134;-0.386527;-0.909976;,
0.000000;-0.000000;-1.000000;,
-0.000000;-0.000000;-1.000000;,
0.000000;0.000000;-1.000000;,
-0.000000;0.000000;-1.000000;,
-0.000001;-0.000000;-1.000000;,
-0.000000;0.000000;-1.000000;,
0.000000;0.000000;-1.000000;,
-0.000000;-0.000000;-1.000000;,
-0.000000;0.000000;-1.000000;,
-0.000000;-0.000000;-1.000000;,
-0.000000;0.000000;-1.000000;,
0.000000;0.000000;-1.000000;,
-0.000001;-0.000009;-1.000000;,
-0.000000;-0.000000;-1.000000;,
-0.000000;0.000000;-1.000000;,
-0.000000;0.000000;-1.000000;,
0.000000;0.000000;-1.000000;,
0.000000;-0.000000;-1.000000;,
0.000000;-0.000000;-1.000000;,
-0.000000;0.000000;-1.000000;,
-0.000000;0.000000;-1.000000;,
-0.000000;0.000000;-1.000000;,
0.000000;0.000000;-1.000000;,
0.000000;0.000000;-1.000000;,
-0.000001;-0.000005;-1.000000;,
-0.000000;0.000000;-1.000000;,
-0.000000;0.000000;-1.000000;,
0.000000;0.000000;-1.000000;,
0.000000;0.000000;-1.000000;,
-0.000002;0.000002;-1.000000;,
0.000000;-0.000000;-1.000000;,
-0.000001;0.000000;-1.000000;,
-0.000000;0.000000;-1.000000;,
0.000000;-0.000000;-1.000000;,
-0.000000;0.000000;-1.000000;,
-0.000000;0.000000;-1.000000;,
-0.000001;0.000000;-1.000000;,
0.000000;-0.000000;-1.000000;;

 216;
3;2,1,0;,
3;3,0,1;,
3;6,5,4;,
3;7,4,5;,
3;10,9,8;,
3;13,12,11;,
3;16,15,14;,
3;19,18,17;,
3;22,21,20;,
3;25,24,23;,
3;28,27,26;,
3;31,30,29;,
3;34,33,32;,
3;35,32,33;,
3;38,37,36;,
3;41,40,39;,
3;44,43,42;,
3;45,42,43;,
3;27,28,46;,
3;49,48,47;,
3;52,51,50;,
3;53,50,51;,
3;51,54,53;,
3;55,53,54;,
3;54,56,55;,
3;57,55,56;,
3;56,58,57;,
3;59,57,58;,
3;58,60,59;,
3;61,59,60;,
3;60,62,61;,
3;63,61,62;,
3;62,64,63;,
3;65,63,64;,
3;64,66,65;,
3;67,65,66;,
3;66,68,67;,
3;69,67,68;,
3;68,70,69;,
3;71,69,70;,
3;70,72,71;,
3;73,71,72;,
3;72,74,73;,
3;75,73,74;,
3;74,76,75;,
3;77,75,76;,
3;76,78,77;,
3;79,77,78;,
3;78,80,79;,
3;81,79,80;,
3;80,52,81;,
3;50,81,52;,
3;50,53,82;,
3;83,82,53;,
3;53,55,83;,
3;84,83,55;,
3;55,57,84;,
3;85,84,57;,
3;57,59,85;,
3;86,85,59;,
3;59,61,86;,
3;87,86,61;,
3;61,63,87;,
3;88,87,63;,
3;63,65,88;,
3;89,88,65;,
3;65,67,89;,
3;90,89,67;,
3;67,69,90;,
3;91,90,69;,
3;69,71,91;,
3;92,91,71;,
3;71,73,92;,
3;93,92,73;,
3;73,75,93;,
3;94,93,75;,
3;75,77,94;,
3;95,94,77;,
3;77,79,95;,
3;96,95,79;,
3;79,81,96;,
3;97,96,81;,
3;81,50,97;,
3;82,97,50;,
3;96,97,95;,
3;94,95,93;,
3;92,93,91;,
3;93,95,91;,
3;90,91,89;,
3;88,89,87;,
3;89,91,87;,
3;91,95,87;,
3;86,87,85;,
3;84,85,83;,
3;85,87,83;,
3;87,95,83;,
3;95,97,83;,
3;97,82,83;,
3;100,99,98;,
3;101,98,99;,
3;99,102,101;,
3;103,101,102;,
3;102,104,103;,
3;105,103,104;,
3;104,106,105;,
3;107,105,106;,
3;106,108,107;,
3;109,107,108;,
3;108,110,109;,
3;111,109,110;,
3;110,112,111;,
3;113,111,112;,
3;112,114,113;,
3;115,113,114;,
3;114,116,115;,
3;117,115,116;,
3;116,118,117;,
3;119,117,118;,
3;118,120,119;,
3;121,119,120;,
3;120,122,121;,
3;123,121,122;,
3;122,124,123;,
3;125,123,124;,
3;124,126,125;,
3;127,125,126;,
3;126,128,127;,
3;129,127,128;,
3;128,100,129;,
3;98,129,100;,
3;98,101,130;,
3;131,130,101;,
3;101,103,131;,
3;132,131,103;,
3;103,105,132;,
3;133,132,105;,
3;105,107,133;,
3;134,133,107;,
3;107,109,134;,
3;135,134,109;,
3;109,111,135;,
3;136,135,111;,
3;111,113,136;,
3;137,136,113;,
3;113,115,137;,
3;138,137,115;,
3;115,117,138;,
3;139,138,117;,
3;117,119,139;,
3;140,139,119;,
3;119,121,140;,
3;141,140,121;,
3;121,123,141;,
3;142,141,123;,
3;123,125,142;,
3;143,142,125;,
3;125,127,143;,
3;144,143,127;,
3;127,129,144;,
3;145,144,129;,
3;129,98,145;,
3;130,145,98;,
3;144,145,143;,
3;142,143,141;,
3;140,141,139;,
3;141,143,139;,
3;138,139,137;,
3;136,137,135;,
3;137,139,135;,
3;139,143,135;,
3;134,135,133;,
3;132,133,131;,
3;133,135,131;,
3;135,143,131;,
3;143,145,131;,
3;145,130,131;,
3;148,147,146;,
3;147,149,146;,
3;146,149,150;,
3;150,149,151;,
3;151,149,152;,
3;152,149,153;,
3;149,154,153;,
3;153,154,155;,
3;155,154,156;,
3;156,154,157;,
3;157,154,158;,
3;158,154,159;,
3;154,160,159;,
3;159,160,161;,
3;161,160,162;,
3;160,163,162;,
3;162,163,164;,
3;164,163,165;,
3;151,166,150;,
3;150,166,167;,
3;166,168,167;,
3;167,168,169;,
3;169,168,170;,
3;170,168,171;,
3;168,172,171;,
3;171,172,173;,
3;173,172,174;,
3;172,175,174;,
3;175,165,174;,
3;165,163,174;,
3;174,163,176;,
3;148,177,147;,
3;177,178,147;,
3;178,179,147;,
3;179,180,147;,
3;147,180,181;,
3;180,182,181;,
3;182,183,181;,
3;183,176,181;,
3;176,163,181;;
 }
MeshTextureCoords {
 184;
0.000500;0.999500;,
0.602307;0.999500;,
0.000500;0.999500;,
0.602307;0.999500;,
0.999500;0.000500;,
0.999500;0.602307;,
0.999500;0.602307;,
0.999500;0.000500;,
0.000500;0.271949;,
0.000500;0.999500;,
0.000500;0.271949;,
0.000500;0.999500;,
0.000500;0.271949;,
0.000500;0.999500;,
0.000500;0.271949;,
0.263005;0.000500;,
0.263005;0.000500;,
0.263005;0.000500;,
0.000500;0.271949;,
0.000500;0.271949;,
0.602307;0.602307;,
0.602307;0.999500;,
0.602307;0.999500;,
0.602307;0.999500;,
0.602307;0.602307;,
0.602307;0.602307;,
0.999500;0.000500;,
0.602307;0.000500;,
0.602307;0.000500;,
0.602307;0.000500;,
0.999500;0.000500;,
0.999500;0.000500;,
0.999500;0.602307;,
0.602307;0.000500;,
0.602307;0.602307;,
0.999500;0.000500;,
0.999500;0.602307;,
0.602307;0.602307;,
0.602307;0.602307;,
0.602307;0.602307;,
0.999500;0.602307;,
0.999500;0.602307;,
0.999500;0.000500;,
0.602307;0.602307;,
0.602307;0.000500;,
0.999500;0.602307;,
0.263005;0.000500;,
0.602307;0.000500;,
0.263005;0.000500;,
0.263005;0.000500;,
0.540564;0.577686;,
0.554912;0.614849;,
0.540564;0.577686;,
0.554912;0.614849;,
0.554912;0.882024;,
0.554912;0.882024;,
0.540564;0.919188;,
0.540564;0.919188;,
0.511928;0.937491;,
0.511928;0.937491;,
0.470401;0.941633;,
0.470402;0.941633;,
0.133389;0.941633;,
0.133389;0.941633;,
0.091862;0.937491;,
0.091862;0.937491;,
0.063226;0.919188;,
0.063226;0.919188;,
0.048879;0.882024;,
0.048879;0.882024;,
0.048879;0.618667;,
0.048879;0.618667;,
0.063226;0.581504;,
0.063226;0.581504;,
0.091862;0.555670;,
0.091862;0.555670;,
0.133389;0.547603;,
0.133389;0.547603;,
0.470402;0.547603;,
0.470402;0.547603;,
0.511928;0.555670;,
0.511928;0.555670;,
0.516697;0.594667;,
0.529610;0.628114;,
0.529610;0.868571;,
0.516697;0.902019;,
0.490925;0.918492;,
0.453551;0.922219;,
0.150240;0.922219;,
0.112866;0.918492;,
0.087093;0.902019;,
0.074180;0.868571;,
0.074180;0.631550;,
0.087093;0.598103;,
0.112866;0.574853;,
0.150240;0.567592;,
0.453551;0.567592;,
0.490925;0.574853;,
0.540564;0.225879;,
0.554912;0.263043;,
0.540564;0.225879;,
0.554912;0.263043;,
0.554912;0.446206;,
0.554912;0.446206;,
0.540564;0.483370;,
0.540564;0.483370;,
0.511928;0.501673;,
0.511928;0.501673;,
0.470402;0.505815;,
0.470402;0.505815;,
0.278068;0.505815;,
0.278068;0.505815;,
0.236541;0.501673;,
0.236541;0.501673;,
0.207905;0.483370;,
0.207905;0.483370;,
0.193557;0.446206;,
0.193557;0.446206;,
0.193557;0.266861;,
0.193557;0.266861;,
0.207905;0.229697;,
0.207905;0.229697;,
0.236541;0.203864;,
0.236541;0.203864;,
0.278068;0.195796;,
0.278068;0.195796;,
0.470402;0.195796;,
0.470402;0.195796;,
0.511928;0.203864;,
0.511928;0.203864;,
0.516697;0.242860;,
0.529610;0.276307;,
0.529610;0.432753;,
0.516698;0.466201;,
0.490925;0.482674;,
0.453551;0.486401;,
0.294918;0.486401;,
0.257544;0.482674;,
0.231772;0.466201;,
0.218859;0.432753;,
0.218859;0.279744;,
0.231772;0.246296;,
0.257544;0.223046;,
0.294918;0.215785;,
0.453551;0.215785;,
0.490925;0.223046;,
0.554912;0.446206;,
0.602307;0.000500;,
0.554912;0.263043;,
0.602307;0.602307;,
0.540564;0.483370;,
0.540564;0.577686;,
0.554912;0.614849;,
0.554912;0.882024;,
0.602307;0.999500;,
0.540564;0.919188;,
0.511928;0.937491;,
0.470401;0.941633;,
0.133389;0.941633;,
0.091862;0.937491;,
0.000500;0.999500;,
0.063226;0.919188;,
0.048879;0.882024;,
0.000500;0.271949;,
0.048879;0.618667;,
0.063226;0.581504;,
0.511928;0.555670;,
0.511928;0.501673;,
0.470402;0.547603;,
0.470402;0.505815;,
0.278068;0.505815;,
0.236541;0.501673;,
0.133389;0.547603;,
0.207905;0.483370;,
0.193557;0.446206;,
0.091862;0.555670;,
0.193557;0.266861;,
0.540564;0.225879;,
0.511928;0.203864;,
0.470402;0.195796;,
0.278068;0.195796;,
0.263005;0.000500;,
0.236541;0.203864;,
0.207905;0.229697;;
}
}
 }
