xof 0302txt 0032
Header {
 1;
 0;
 1;
}
template Header {
 <3D82AB43-62DA-11cf-AB39-0020AF71E433>
 WORD major;
 WORD minor;
 DWORD flags;
}

template Vector {
 <3D82AB5E-62DA-11cf-AB39-0020AF71E433>
 FLOAT x;
 FLOAT y;
 FLOAT z;
}

template Coords2d {
 <F6F23F44-7686-11cf-8F52-0040333594A3>
 FLOAT u;
 FLOAT v;
}

template Matrix4x4 {
 <F6F23F45-7686-11cf-8F52-0040333594A3>
 array FLOAT matrix[16];
}

template ColorRGBA {
 <35FF44E0-6C7C-11cf-8F52-0040333594A3>
 FLOAT red;
 FLOAT green;
 FLOAT blue;
 FLOAT alpha;
}

template ColorRGB {
 <D3E16E81-7835-11cf-8F52-0040333594A3>
 FLOAT red;
 FLOAT green;
 FLOAT blue;
}

template TextureFilename {
 <A42790E1-7810-11cf-8F52-0040333594A3>
 STRING filename;
}

template Material {
 <3D82AB4D-62DA-11cf-AB39-0020AF71E433>
 ColorRGBA faceColor;
 FLOAT power;
 ColorRGB specularColor;
 ColorRGB emissiveColor;
 [...]
}

template MeshFace {
 <3D82AB5F-62DA-11cf-AB39-0020AF71E433>
 DWORD nFaceVertexIndices;
 array DWORD faceVertexIndices[nFaceVertexIndices];
}

template MeshTextureCoords {
 <F6F23F40-7686-11cf-8F52-0040333594A3>
 DWORD nTextureCoords;
 array Coords2d textureCoords[nTextureCoords];
}

template MeshMaterialList {
 <F6F23F42-7686-11cf-8F52-0040333594A3>
 DWORD nMaterials;
 DWORD nFaceIndexes;
 array DWORD faceIndexes[nFaceIndexes];
 [Material]
}

template MeshNormals {
 <F6F23F43-7686-11cf-8F52-0040333594A3>
 DWORD nNormals;
 array Vector normals[nNormals];
 DWORD nFaceNormals;
 array MeshFace faceNormals[nFaceNormals];
}

template Mesh {
 <3D82AB44-62DA-11cf-AB39-0020AF71E433>
 DWORD nVertices;
 array Vector vertices[nVertices];
 DWORD nFaces;
 array MeshFace faces[nFaces];
 [...]
}

template FrameTransformMatrix {
 <F6F23F41-7686-11cf-8F52-0040333594A3>
 Matrix4x4 frameMatrix;
}

template Frame {
 <3D82AB46-62DA-11cf-AB39-0020AF71E433>
 [...]
}

Frame ID2 {
   FrameTransformMatrix {
1.000000,0.000000,0.000000,0.000000,
0.000000,1.000000,0.000000,0.000000,
0.000000,0.000000,1.000000,0.000000,
0.000000,0.000000,0.000000,1.000000;;
 }
Frame ID21 {
   FrameTransformMatrix {
1.000000,0.000000,0.000000,0.000000,
0.000000,1.000000,0.000000,0.000000,
0.000000,0.000000,1.000000,0.000000,
0.000000,0.000000,0.000000,1.000000;;
 }
Mesh ID22 {
 40;
23.622049;0.000000;20.078739;,
0.000000;0.000000;0.000000;,
0.000000;0.000000;20.078739;,
23.622049;0.000000;0.000000;,
0.000000;1.574803;20.078739;,
0.000000;0.000000;0.000000;,
0.000000;1.574803;0.000000;,
0.000000;0.000000;20.078739;,
0.000000;1.574803;20.078739;,
23.622049;0.000000;20.078739;,
0.000000;0.000000;20.078739;,
23.622049;1.574803;20.078739;,
23.622049;0.000000;20.078739;,
23.622049;1.574803;0.000000;,
23.622049;0.000000;0.000000;,
23.622049;1.574803;20.078739;,
23.622049;1.574803;0.000000;,
0.000000;0.000000;0.000000;,
23.622049;0.000000;0.000000;,
0.000000;1.574803;0.000000;,
23.622049;0.000000;0.000000;,
23.622049;0.000000;20.078739;,
0.000000;0.000000;0.000000;,
0.000000;0.000000;20.078739;,
0.000000;0.000000;20.078739;,
0.000000;1.574803;20.078739;,
0.000000;0.000000;0.000000;,
0.000000;1.574803;0.000000;,
23.622049;1.574803;20.078739;,
0.000000;1.574803;20.078739;,
23.622049;0.000000;20.078739;,
0.000000;0.000000;20.078739;,
23.622049;1.574803;20.078739;,
23.622049;0.000000;20.078739;,
23.622049;1.574803;0.000000;,
23.622049;0.000000;0.000000;,
0.000000;1.574803;0.000000;,
23.622049;1.574803;0.000000;,
0.000000;0.000000;0.000000;,
23.622049;0.000000;0.000000;;

 20;
3;2,1,0;,
3;3,0,1;,
3;6,5,4;,
3;7,4,5;,
3;10,9,8;,
3;11,8,9;,
3;14,13,12;,
3;15,12,13;,
3;18,17,16;,
3;19,16,17;,
3;22,21,20;,
3;21,22,23;,
3;26,25,24;,
3;25,26,27;,
3;30,29,28;,
3;29,30,31;,
3;34,33,32;,
3;33,34,35;,
3;38,37,36;,
3;37,38,39;;
MeshMaterialList {
 1;
 20;
  0,
  0,
  0,
  0,
  0,
  0,
  0,
  0,
  0,
  0,
  0,
  0,
  0,
  0,
  0,
  0,
  0,
  0,
  0,
  0;;
Material mat02 {
 1.000000;1.000000;1.000000;1.000000;;
2048.000000;
 0.000000;0.000000;0.000000;;
 0.000000;0.000000;0.000000;;
 }
}

 MeshNormals {
 40;
0.000000;-1.000000;0.000000;,
0.000000;-1.000000;0.000000;,
0.000000;-1.000000;0.000000;,
0.000000;-1.000000;0.000000;,
-1.000000;0.000000;0.000000;,
-1.000000;0.000000;0.000000;,
-1.000000;0.000000;0.000000;,
-1.000000;0.000000;0.000000;,
-0.000000;0.000000;1.000000;,
-0.000000;0.000000;1.000000;,
-0.000000;0.000000;1.000000;,
-0.000000;0.000000;1.000000;,
1.000000;0.000000;0.000000;,
1.000000;0.000000;0.000000;,
1.000000;0.000000;0.000000;,
1.000000;0.000000;0.000000;,
-0.000000;-0.000000;-1.000000;,
-0.000000;-0.000000;-1.000000;,
-0.000000;-0.000000;-1.000000;,
-0.000000;-0.000000;-1.000000;,
-0.000000;1.000000;-0.000000;,
-0.000000;1.000000;-0.000000;,
-0.000000;1.000000;-0.000000;,
-0.000000;1.000000;-0.000000;,
1.000000;-0.000000;-0.000000;,
1.000000;-0.000000;-0.000000;,
1.000000;-0.000000;-0.000000;,
1.000000;-0.000000;-0.000000;,
0.000000;-0.000000;-1.000000;,
0.000000;-0.000000;-1.000000;,
0.000000;-0.000000;-1.000000;,
0.000000;-0.000000;-1.000000;,
-1.000000;-0.000000;-0.000000;,
-1.000000;-0.000000;-0.000000;,
-1.000000;-0.000000;-0.000000;,
-1.000000;-0.000000;-0.000000;,
0.000000;0.000000;1.000000;,
0.000000;0.000000;1.000000;,
0.000000;0.000000;1.000000;,
0.000000;0.000000;1.000000;;

 20;
3;2,1,0;,
3;3,0,1;,
3;6,5,4;,
3;7,4,5;,
3;10,9,8;,
3;11,8,9;,
3;14,13,12;,
3;15,12,13;,
3;18,17,16;,
3;19,16,17;,
3;22,21,20;,
3;21,22,23;,
3;26,25,24;,
3;25,26,27;,
3;30,29,28;,
3;29,30,31;,
3;34,33,32;,
3;33,34,35;,
3;38,37,36;,
3;37,38,39;;
 }
MeshTextureCoords {
 40;
0.995000;0.137333;,
0.345555;0.897918;,
0.345555;0.137333;,
0.995000;0.897918;,
0.339424;0.156632;,
0.296128;0.917217;,
0.339424;0.917217;,
0.296128;0.156632;,
0.166615;0.072107;,
0.816060;0.131761;,
0.166615;0.131761;,
0.816060;0.072107;,
0.247422;0.234415;,
0.290719;0.995000;,
0.247422;0.995000;,
0.290719;0.234415;,
0.654445;0.005000;,
0.005000;0.064654;,
0.654445;0.064654;,
0.005000;0.005000;,
0.755382;0.848536;,
0.755382;0.130015;,
0.005000;0.848536;,
0.005000;0.130015;,
0.760053;0.276478;,
0.810078;0.276478;,
0.760053;0.995000;,
0.810078;0.995000;,
0.818499;0.068396;,
0.068116;0.068396;,
0.818499;0.124750;,
0.068116;0.124750;,
0.866354;0.207320;,
0.816328;0.207320;,
0.866354;0.925841;,
0.816328;0.925841;,
0.244618;0.005000;,
0.995000;0.005000;,
0.244618;0.061355;,
0.995000;0.061355;;
}
}
 }
Mesh ID213 {
 8;
23.622049;1.574803;0.000000;,
0.000000;1.574803;20.078739;,
0.000000;1.574803;0.000000;,
23.622049;1.574803;20.078739;,
23.622049;1.574803;20.078739;,
23.622049;1.574803;0.000000;,
0.000000;1.574803;20.078739;,
0.000000;1.574803;0.000000;;

 4;
3;2,1,0;,
3;3,0,1;,
3;6,5,4;,
3;5,6,7;;
MeshMaterialList {
 1;
 4;
  0,
  0,
  0,
  0;;
Material mat01 {
 1.000000;1.000000;1.000000;1.000000;;
2048.000000;
 0.000000;0.000000;0.000000;;
 0.000000;0.000000;0.000000;;
TextureFilename {
"Plita01.jpg";
}
 }
}

 MeshNormals {
 8;
-0.000000;1.000000;-0.000000;,
-0.000000;1.000000;-0.000000;,
-0.000000;1.000000;-0.000000;,
-0.000000;1.000000;-0.000000;,
0.000000;-1.000000;0.000000;,
0.000000;-1.000000;0.000000;,
0.000000;-1.000000;0.000000;,
0.000000;-1.000000;0.000000;;

 4;
3;2,1,0;,
3;3,0,1;,
3;6,5,4;,
3;5,6,7;;
 }
MeshTextureCoords {
 8;
0.314500;-0.990000;,
1.311304;-0.004588;,
1.311304;-0.990000;,
0.314500;-0.004588;,
1.997500;0.990000;,
1.997500;0.004588;,
1.000696;0.990000;,
1.000696;0.004588;;
}
}
 }
