xof 0303txt 0032
template ColorRGBA {
 <35ff44e0-6c7c-11cf-8f52-0040333594a3>
 FLOAT red;
 FLOAT green;
 FLOAT blue;
 FLOAT alpha;
}

template ColorRGB {
 <d3e16e81-7835-11cf-8f52-0040333594a3>
 FLOAT red;
 FLOAT green;
 FLOAT blue;
}

template Material {
 <3d82ab4d-62da-11cf-ab39-0020af71e433>
 ColorRGBA faceColor;
 FLOAT power;
 ColorRGB specularColor;
 ColorRGB emissiveColor;
 [...]
}

template TextureFilename {
 <a42790e1-7810-11cf-8f52-0040333594a3>
 STRING filename;
}

template Vector {
 <3d82ab5e-62da-11cf-ab39-0020af71e433>
 FLOAT x;
 FLOAT y;
 FLOAT z;
}

template MeshFace {
 <3d82ab5f-62da-11cf-ab39-0020af71e433>
 DWORD nFaceVertexIndices;
 array DWORD faceVertexIndices[nFaceVertexIndices];
}

template Mesh {
 <3d82ab44-62da-11cf-ab39-0020af71e433>
 DWORD nVertices;
 array Vector vertices[nVertices];
 DWORD nFaces;
 array MeshFace faces[nFaces];
 [...]
}

template MeshNormals {
 <f6f23f43-7686-11cf-8f52-0040333594a3>
 DWORD nNormals;
 array Vector normals[nNormals];
 DWORD nFaceNormals;
 array MeshFace faceNormals[nFaceNormals];
}

template MeshMaterialList {
 <f6f23f42-7686-11cf-8f52-0040333594a3>
 DWORD nMaterials;
 DWORD nFaceIndexes;
 array DWORD faceIndexes[nFaceIndexes];
 [Material <3d82ab4d-62da-11cf-ab39-0020af71e433>]
}

template Coords2d {
 <f6f23f44-7686-11cf-8f52-0040333594a3>
 FLOAT u;
 FLOAT v;
}

template MeshTextureCoords {
 <f6f23f40-7686-11cf-8f52-0040333594a3>
 DWORD nTextureCoords;
 array Coords2d textureCoords[nTextureCoords];
}


Material mat_03 {
 1.000000;1.000000;1.000000;1.000000;;
 3.200000;
 0.000000;0.000000;0.000000;;
 0.000000;0.000000;0.000000;;

 TextureFilename {
  "03.jpg";
 }
}

Material mat_02 {
 1.000000;1.000000;1.000000;1.000000;;
 3.200000;
 0.000000;0.000000;0.000000;;
 0.000000;0.000000;0.000000;;

 TextureFilename {
  "02.jpg";
 }
}

Material mat_01 {
 1.000000;1.000000;1.000000;1.000000;;
 3.200000;
 0.000000;0.000000;0.000000;;
 0.000000;0.000000;0.000000;;

 TextureFilename {
  "01.jpg";
 }
}

Mesh Box005 {
 48;
 0.399994;0.400000;-17.000000;,
 495.60000;0.000000;-16.600000;,
 0.000000;0.400000;-0.400000;,
 495.60000;0.000000;-0.400000;,
 0.399994;715.60000;-17.000000;,
 496.00000;715.60000;-16.600000;,
 0.000000;715.60000;-0.400000;,
 495.60000;715.60000;0.000000;,
 0.000000;0.400000;-16.600000;,
 0.399994;0.000000;-16.600000;,
 496.00000;0.400000;-16.600000;,
 495.60000;0.400000;-17.000000;,
 0.399994;0.400000;0.000000;,
 0.399994;0.000000;-0.400000;,
 495.60000;0.400000;0.000000;,
 496.00000;0.400000;-0.400000;,
 0.399994;716.00000;-16.600000;,
 0.000000;715.60000;-16.600000;,
 495.60000;716.00000;-16.600000;,
 495.60000;715.60000;-17.000000;,
 0.399994;716.00000;-0.400000;,
 0.399994;715.60000;0.000000;,
 495.60000;716.00000;-0.400000;,
 496.00000;715.60000;-0.400000;,
 0.399994;0.000000;-16.600000;,
 495.60000;0.000000;-16.600000;,
 0.399994;0.000000;-0.400000;,
 495.60000;0.000000;-0.400000;,
 0.399994;716.00000;-16.600000;,
 495.60000;716.00000;-16.600000;,
 0.399994;716.00000;-0.400000;,
 495.60000;716.00000;-0.400000;,
 0.399994;0.000000;-0.400000;,
 495.60000;0.400000;0.000000;,
 0.399994;0.400000;0.000000;,
 495.60000;0.000000;-0.400000;,
 495.60000;0.000000;-16.600000;,
 0.399994;0.400000;-17.000000;,
 495.60000;0.400000;-17.000000;,
 0.399994;0.000000;-16.600000;,
 0.399994;716.00000;-16.600000;,
 495.60000;715.60000;-17.000000;,
 0.399994;715.60000;-17.000000;,
 495.60000;716.00000;-16.600000;,
 495.60000;716.00000;-0.400000;,
 0.399994;715.60000;0.000000;,
 495.60000;715.60000;0.000000;,
 0.399994;716.00000;-0.400000;;
 40;
 3;9,3,13;,
 3;3,9,1;,
 3;16,22,18;,
 3;22,16,20;,
 3;10,23,15;,
 3;23,10,5;,
 3;2,17,8;,
 3;17,2,6;,
 3;0,24,8;,
 3;25,11,10;,
 3;2,26,12;,
 3;27,15,14;,
 3;4,17,28;,
 3;5,19,29;,
 3;6,21,30;,
 3;7,23,31;,
 3;24,2,8;,
 3;2,24,26;,
 3;32,33,34;,
 3;33,32,35;,
 3;27,10,15;,
 3;10,27,25;,
 3;36,37,38;,
 3;37,36,39;,
 3;40,41,42;,
 3;41,40,43;,
 3;29,23,5;,
 3;23,29,31;,
 3;44,45,46;,
 3;45,44,47;,
 3;30,17,6;,
 3;17,30,28;,
 3;11,5,10;,
 3;5,11,19;,
 3;4,8,17;,
 3;8,4,0;,
 3;15,7,14;,
 3;7,15,23;,
 3;12,6,2;,
 3;6,12,21;;

 MeshNormals  {
  24;
  0.000000;-1.000000;0.000000;,
  0.000000;1.000000;0.000000;,
  1.000000;0.000000;0.000000;,
  -1.000000;0.000000;0.000000;,
  -0.577356;-0.577347;-0.577348;,
  0.577356;-0.577347;-0.577348;,
  -0.577356;-0.577347;0.577348;,
  0.577356;-0.577347;0.577348;,
  -0.577368;0.577324;-0.577360;,
  0.577368;0.577324;-0.577360;,
  -0.577368;0.577324;0.577360;,
  0.577368;0.577324;0.577360;,
  -0.707112;-0.707101;0.000000;,
  0.000000;-0.707106;0.707107;,
  0.707112;-0.707101;0.000000;,
  0.000000;-0.707106;-0.707107;,
  0.000000;0.707085;-0.707129;,
  0.707134;0.707080;0.000000;,
  0.000000;0.707085;0.707129;,
  -0.707134;0.707080;0.000000;,
  0.707112;0.000000;-0.707102;,
  -0.707112;0.000000;-0.707102;,
  0.707112;0.000000;0.707102;,
  -0.707112;0.000000;0.707102;;
  40;
  3;0,0,0;,
  3;0,0,0;,
  3;1,1,1;,
  3;1,1,1;,
  3;2,2,2;,
  3;2,2,2;,
  3;3,3,3;,
  3;3,3,3;,
  3;4,4,4;,
  3;5,5,5;,
  3;6,6,6;,
  3;7,7,7;,
  3;8,8,8;,
  3;9,9,9;,
  3;10,10,10;,
  3;11,11,11;,
  3;12,12,12;,
  3;12,12,12;,
  3;13,13,13;,
  3;13,13,13;,
  3;14,14,14;,
  3;14,14,14;,
  3;15,15,15;,
  3;15,15,15;,
  3;16,16,16;,
  3;16,16,16;,
  3;17,17,17;,
  3;17,17,17;,
  3;18,18,18;,
  3;18,18,18;,
  3;19,19,19;,
  3;19,19,19;,
  3;20,20,20;,
  3;20,20,20;,
  3;21,21,21;,
  3;21,21,21;,
  3;22,22,22;,
  3;22,22,22;,
  3;23,23,23;,
  3;23,23,23;;
 }

 MeshMaterialList  {
  1;
  40;
  0,
  0,
  0,
  0,
  0,
  0,
  0,
  0,
  0,
  0,
  0,
  0,
  0,
  0,
  0,
  0,
  0,
  0,
  0,
  0,
  0,
  0,
  0,
  0,
  0,
  0,
  0,
  0,
  0,
  0,
  0,
  0,
  0,
  0,
  0,
  0,
  0,
  0,
  0,
  0;
  { mat_03 }
 }

 MeshTextureCoords  {
  48;
  0.505790;0.743597;,
  0.331335;0.505518;,
  0.494482;0.743597;,
  0.331335;0.494482;,
  0.505790;0.256403;,
  0.494482;0.256403;,
  0.494482;0.256403;,
  0.505790;0.256403;,
  0.505518;0.743597;,
  0.668665;0.505518;,
  0.494482;0.743597;,
  0.494210;0.743597;,
  0.494210;0.743597;,
  0.668665;0.494482;,
  0.505790;0.743597;,
  0.505518;0.743597;,
  0.331335;0.505518;,
  0.505518;0.256403;,
  0.668665;0.505518;,
  0.494210;0.256403;,
  0.331335;0.494482;,
  0.494210;0.256403;,
  0.668665;0.494482;,
  0.505518;0.256403;,
  0.505518;0.743869;,
  0.494482;0.743869;,
  0.494482;0.743869;,
  0.505518;0.743869;,
  0.505518;0.256131;,
  0.494482;0.256131;,
  0.494482;0.256131;,
  0.505518;0.256131;,
  0.668665;0.743869;,
  0.331335;0.743597;,
  0.668665;0.743597;,
  0.331335;0.743869;,
  0.668665;0.743869;,
  0.331335;0.743597;,
  0.668665;0.743597;,
  0.331335;0.743869;,
  0.331335;0.256131;,
  0.668665;0.256403;,
  0.331335;0.256403;,
  0.668665;0.256131;,
  0.331335;0.256131;,
  0.668665;0.256403;,
  0.331335;0.256403;,
  0.668665;0.256131;;
 }
}

Mesh Box006 {
 4;
 495.60000;715.60000;0.000000;,
 0.399994;0.400000;0.000000;,
 495.60000;0.400000;0.000000;,
 0.399994;715.60000;0.000000;;
 2;
 3;2,3,1;,
 3;3,2,0;;

 MeshNormals  {
  1;
  0.000000;0.000000;1.000000;;
  2;
  3;0,0,0;,
  3;0,0,0;;
 }

 MeshMaterialList  {
  1;
  2;
  0,
  0;
  { mat_02 }
 }

 MeshTextureCoords  {
  4;
  0.331335;0.256403;,
  0.668665;0.743597;,
  0.331335;0.743597;,
  0.668665;0.256403;;
 }
}

Mesh Box004 {
 4;
 0.399994;0.400000;-17.000000;,
 0.399994;715.60000;-17.000000;,
 495.60000;0.400000;-17.000000;,
 495.60000;715.60000;-17.000000;;
 2;
 3;0,3,2;,
 3;3,0,1;;

 MeshNormals  {
  1;
  0.000000;0.000000;-1.000000;;
  2;
  3;0,0,0;,
  3;0,0,0;;
 }

 MeshMaterialList  {
  1;
  2;
  0,
  0;
  { mat_01 }
 }

 MeshTextureCoords  {
  4;
  0.331335;0.743597;,
  0.331335;0.256403;,
  0.668665;0.743597;,
  0.668665;0.256403;;
 }
}